setup_vision = yes
government = tribal
add_government_reform = deepwoods_horde
government_rank = 1
primary_culture = green_orc
religion = great_dookan
technology_group = tech_orcish
capital = 3042

1442.7.19 = {
	monarch = {
		name = "Kharag"
		dynasty = "Silvertusk"
		birth_date = 1410.5.1
		adm = 5
		dip = 4
		mil = 4
	}
	add_ruler_personality = midas_touched_personality
	add_ruler_personality = cruel_personality
	heir = {
		name = "Borgan"
		monarch_name = "Borgan"
		dynasty = "Silvertusk"
		birth_date = 1427.6.12
		death_date = 1470.3.10
		claim = 95
		adm = 4
		dip = 1
		mil = 4
	}
	add_heir_personality = bold_fighter_personality
	queen = {
		country_of_origin = I41
		dynasty = "Sapchopper"
		name = "Ghorza"
		birth_date = 1412.10.4
		death_date = 1459.9.1
		female = yes
		adm = 2
		dip = 3
		mil = 2
	}
}