#This one or the next one will always be valid
estate_burghers_hire_advisor = {
	can_select = {
		NOT = {
			employed_advisor = {
				category = DIP
			}
		}
	}
	selection_weight = {
		factor = 1
	}
	task_requirements = {
		employed_advisor = {
			category = DIP
		}
		is_in_deficit = no
	}
    task_completed_effect = {
		add_estate_loyalty = {
			estate = estate_burghers
			loyalty = 10
		}
    }
    failing_effect = {
        add_estate_loyalty_modifier = {
            estate = estate_burghers
			desc = EST_VAL_AGENDA_DENIED
			loyalty = -5
			duration = 7300
        }
    }
}

estate_burghers_fire_advisor = {
	can_select = {
		employed_advisor = {
			category = DIP
		}
	}
	selection_weight = {
		factor = 1
		modifier = {
			factor = 0.5
			always = yes
		}
	}
	immediate_effect = {
		hidden_effect = {
			set_country_flag = need_to_fire_dip_advisor
		}
	}
	on_invalid = {
		clr_country_flag = need_to_fire_dip_advisor
	}
	task_requirements = {
		custom_trigger_tooltip = {
			tooltip = fire_dip_advisor_tooltip
			has_country_flag = just_fired_dip_advisor
		}
	}
    task_completed_effect = {
		add_estate_loyalty = {
			estate = estate_burghers
			loyalty = 10
		}
		clr_country_flag = just_fired_dip_advisor
		clr_country_flag = need_to_fire_dip_advisor
	}
	invalid_trigger = {
		NOT = {
			employed_advisor = {
				category = DIP
			}
		}
		NOT = { has_country_flag = just_fired_dip_advisor }
	}
    failing_effect = {
        add_estate_loyalty_modifier = {
            estate = estate_burghers
			desc = EST_VAL_AGENDA_DENIED
			loyalty = -5
			duration = 7300
        }
		clr_country_flag = need_to_fire_dip_advisor
    }
}

#Pay off loans
estate_burghers_pay_off_loans = {
	can_select = {
		num_of_loans = 5
		is_bankrupt = no
	}
	selection_weight = {
		factor = 2
		modifier = {
			factor = 0.5
			is_at_war = yes
		}
		modifier = {
			factor = 1.5
			num_of_loans = 10
		}
		modifier = {
			factor = 1.5
			num_of_loans = 15
		}
		modifier = {
			factor = 1.5
			num_of_loans = 20
		}
	}
	fail_if = {
		is_bankrupt = yes
	}
	task_requirements = {
		NOT = { num_of_loans = 1 }
		hidden_trigger = {
			is_bankrupt = no
		}
	}
    task_completed_effect = {
		add_estate_loyalty = {
			estate = estate_burghers
			loyalty = 10
		}
		generate_scaled_advisor_of_type_and_religion_effect = {
			type = treasurer
			religion = root
			discount = yes
		}
    }
    failing_effect = {
        add_estate_loyalty_modifier = {
            estate = estate_burghers
			desc = EST_VAL_AGENDA_DENIED
			loyalty = -5
			duration = 7300
        }
    }
}

#Restore republican tradition
estate_burghers_restore_republican_tradition = {
	can_select = {
		NOT = { republican_tradition = 65 }
		republican_tradition = 20
		OR = {
			government = republic
			government = dictatorship
		}
		NOT = { has_country_modifier = agenda_republicanism_restored }
	}
	selection_weight = {
		factor = 2
		modifier = {
			factor = 1.5
			NOT = { republican_tradition = 50 }
		}
		modifier = {
			factor = 1.5
			NOT = { republican_tradition = 35 }
		}
	}
	fail_if = {
		NOT = { government = republic }
		NOT = { government = dictatorship }
	}
	task_requirements = {
		republican_tradition = 85
	}
    task_completed_effect = {
		add_estate_loyalty = {
			estate = estate_burghers
			loyalty = 10
		}
		add_country_modifier = {
			name = agenda_republicanism_restored
			duration = 5475
		}
    }
    failing_effect = {
        add_estate_loyalty_modifier = {
            estate = estate_burghers
			desc = EST_VAL_AGENDA_DENIED
			loyalty = -5
			duration = 7300
        }
    }
}

#Reduce Inflation
estate_burghers_restore_currency = {
	can_select = {
		inflation = 10
		NOT = {
			inflation = 30
		}
		NOT = { has_country_modifier = boom_economy }
	}
	selection_weight = {
		factor = 2.5
		modifier = {
			factor = 2
			inflation = 20
		}
	}
	fail_if = {
		inflation = 35
	}
	task_requirements = {
		NOT = { inflation = 5 }
	}
    task_completed_effect = {
		add_estate_loyalty = {
			estate = estate_burghers
			loyalty = 10
		}
		add_country_modifier = {
			name = boom_economy
			duration = 5475
		}
    }
    failing_effect = {
        add_estate_loyalty_modifier = {
            estate = estate_burghers
			desc = EST_VAL_AGENDA_DENIED
			loyalty = -5
			duration = 7300
        }
    }
}

#Recover Abysmal Inflation
estate_burghers_recovery_from_hyperinflation = {
	can_select = {
		inflation = 30
	}
	selection_weight = {
		factor = 5
	}
	task_requirements = {
		NOT = { inflation = 15 }
	}
    task_completed_effect = {
		add_estate_loyalty = {
			estate = estate_burghers
			loyalty = 10
		}
		add_stability_or_adm_power = yes
		add_inflation = -10
    }
    failing_effect = {
        add_estate_loyalty_modifier = {
            estate = estate_burghers
			desc = EST_VAL_AGENDA_DENIED
			loyalty = -5
			duration = 7300
        }
    }
}


#Improve trade power in node X
estate_burghers_increase_trade_power_in_X = {
	can_select = {
		any_active_trade_node = {
			trade_share = {
				country = root
				share = 5
			}
			NOT = {
				trade_share = {
					country = root
					share = 50
				}
			}
			any_trade_node_member_province = {
				has_port = yes
			}
		}
	}
	selection_weight = {
		factor = 1.5
		modifier = { #a good indication that you should be doing trade stuff
			factor = 2
			num_of_merchants = 3
		}
		modifier = {
			factor = 2
			num_of_merchants = 4
		}
		modifier = {
			factor = 2
			trade_income_percentage = 0.3
		}
	}
	pre_effect = {
		set_variable = {
			which = estate_burghers_increase_trade_power_in_X_var
			value = 0
		}
		random_active_trade_node = {
			limit = {
				trade_share = {
					country = root
					share = 5
				}
				NOT = {
					trade_share = {
						country = root
						share = 50
					}
				}
				any_trade_node_member_province = {
					has_port = yes
				}
			}
			save_event_target_as = agenda_trade_node
			if = {
				limit = {
					trade_share = { #Requires 65
						country = root
						share = 40
					}
				}
				root = {
					set_variable = {
						which = estate_burghers_increase_trade_power_in_X_var
						value = 7
					}
				}
			}
			else_if = {
				limit = {
					trade_share = { #Requires 50
						country = root
						share = 30
					}
				}
				root = {
					set_variable = {
						which = estate_burghers_increase_trade_power_in_X_var
						value = 6
					}
				}
			}
			else_if = {
				limit = {
					trade_share = { #Requires 40
						country = root
						share = 23
					}
				}
				root = {
					set_variable = {
						which = estate_burghers_increase_trade_power_in_X_var
						value = 5
					}
				}
			}
			else_if = {
				limit = {
					trade_share = { #Requires 30
						country = root
						share = 15
					}
				}
				root = {
					set_variable = {
						which = estate_burghers_increase_trade_power_in_X_var
						value = 4
					}
				}
			}
			else_if = {
				limit = {
					trade_share = { #Requires 25
						country = root
						share = 10
					}
				}
				root = {
					set_variable = {
						which = estate_burghers_increase_trade_power_in_X_var
						value = 3
					}
				}
			}
			else_if = {
				limit = {
					trade_share = { #Requires 20
						country = root
						share = 7
					}
				}
				root = {
					set_variable = {
						which = estate_burghers_increase_trade_power_in_X_var
						value = 2
					}
				}
			}
			else = { #Requires 15
				root = {
					set_variable = {
						which = estate_burghers_increase_trade_power_in_X_var
						value = 1
					}
				}
			}
		}
	}
	provinces_to_highlight = {
		province_id = event_target:agenda_trade_node
	}
	task_requirements = {
		event_target:agenda_trade_node = {
			if = {
				limit = {
					root = {
						check_variable = {
							which = estate_burghers_increase_trade_power_in_X_var
							value = 7
						}
					}
				}
				trade_share = {
					country = root
					share = 65
				}
			}
			else_if = {
				limit = {
					root = {
						check_variable = {
							which = estate_burghers_increase_trade_power_in_X_var
							value = 6
						}
					}
				}
				trade_share = {
					country = root
					share = 50
				}
			}
			else_if = {
				limit = {
					root = {
						check_variable = {
							which = estate_burghers_increase_trade_power_in_X_var
							value = 5
						}
					}
				}
				trade_share = {
					country = root
					share = 40
				}
			}
			else_if = {
				limit = {
					root = {
						check_variable = {
							which = estate_burghers_increase_trade_power_in_X_var
							value = 4
						}
					}
				}
				trade_share = {
					country = root
					share = 30
				}
			}
			else_if = {
				limit = {
					root = {
						check_variable = {
							which = estate_burghers_increase_trade_power_in_X_var
							value = 3
						}
					}
				}
				trade_share = {
					country = root
					share = 25
				}
			}
			else_if = {
				limit = {
					root = {
						check_variable = {
							which = estate_burghers_increase_trade_power_in_X_var
							value = 2
						}
					}
				}
				trade_share = {
					country = root
					share = 20
				}
			}
			else_if = {
				limit = {
					root = {
						check_variable = {
							which = estate_burghers_increase_trade_power_in_X_var
							value = 1
						}
					}
				}
				trade_share = {
					country = root
					share = 15
				}
			}
		}
	}
	task_completed_effect = {
		add_estate_loyalty = {
			estate = estate_burghers
			loyalty = 10
		}
		generate_scaled_advisor_of_type_and_religion_effect = {
			type = trader
			religion = root
			discount = yes
		}
	}
    failing_effect = {
        add_estate_loyalty_modifier = {
            estate = estate_burghers
			desc = EST_VAL_AGENDA_DENIED
			loyalty = -5
			duration = 7300
        }
    }
}


#Access to the Sea
estate_burghers_access_sea = {
	can_select = {
		is_free_or_tributary_trigger = yes
		NOT = {
			any_owned_province = {
				has_port = yes
			}
		}
		any_owned_province = {
			any_neighbor_province = {
				has_port = yes
				owner = {
					NOT = { overlord_of = root }
					NOT = { is_subject_of = root }
					NOT = { alliance_with = root }
					NOT = { ROOT = { truce_with = prev } }
					NOT = {
						has_opinion = {
							who = root
							value = 50
						}
					}
					OR = {
						is_part_of_hre = no
						NOT = { hre_reform_passed = landfriede }
						ROOT = { is_part_of_hre = no }
					}
				}
			}
		}
	}
	selection_weight = {
		factor = 2.5
		modifier = {
			factor = 0.25
			any_country = {
				coalition_target = root
			}
		}
	}
	pre_effect = {
		random_owned_province = {
			limit = {
				any_neighbor_province = {
					has_port = yes
					owner = {
						NOT = { overlord_of = root }
						NOT = { is_subject_of = root }
						NOT = { alliance_with = root }
						NOT = { ROOT = { truce_with = prev } }
						NOT = {
							has_opinion = {
								who = root
								value = 50
							}
						}
						OR = {
							is_part_of_hre = no
							NOT = { hre_reform_passed = landfriede }
							ROOT = { is_part_of_hre = no }
						}
					}
				}
			}
			random_neighbor_province = {
				limit = {
					has_port = yes
					owner = {
						NOT = { overlord_of = root }
						NOT = { is_subject_of = root }
						NOT = { alliance_with = root }
						NOT = { ROOT = { truce_with = prev } }
						NOT = {
							has_opinion = {
								who = root
								value = 50
							}
						}
						OR = {
							is_part_of_hre = no
							NOT = { hre_reform_passed = landfriede }
							ROOT = { is_part_of_hre = no }
						}
					}
				}
				save_event_target_as = agenda_province
			}
		}
	}
	provinces_to_highlight = {
		OR = {
			province_id = event_target:agenda_province
			AND = {
				OR = {
					is_claim = root
					is_core = root
				}
				has_port = yes
			}
		}
	}
	task_requirements = {
		any_owned_province = {
			has_port = yes
		}
	}
	immediate_effect = {
		if = {
			limit = {
				event_target:agenda_province = {
					NOT = { is_core = root }
					NOT = { is_claim = root }
				}
			}
			event_target:agenda_province = {
				add_claim = root
			}
		}
	}
	on_invalid = {
		event_target:agenda_province = {
			if = {
				limit = {
					is_claim = root
					NOT = { is_permanent_claim = root }
				}
				remove_claim = root
			}
		}
	}
	task_completed_effect = {
		add_estate_loyalty = {
			estate = estate_burghers
			loyalty = 10
		}
		add_sailors = 500
	}
    failing_effect = {
        add_estate_loyalty_modifier = {
            estate = estate_burghers
			desc = EST_VAL_AGENDA_DENIED
			loyalty = -5
			duration = 7300
        }
		event_target:agenda_province = {
			if = {
				limit = {
					is_claim = root
					NOT = { is_permanent_claim = root }
				}
				remove_claim = root
			}
		}
    }
}

#Bigger Fleet
estate_burghers_build_a_fleet = {
	can_select = {
		primitives = no
		any_owned_province = {
			has_port = yes
			is_core = root
		}
		navy_size = 1
		NOT = { navy_size_percentage = 0.5 }
		NOT = { navy_size = 250 }
		NOT = { has_country_modifier = thriving_ship_building_sector }
	}
	selection_weight = {
		factor = 2.5
		modifier = {
			factor = 1.5
			any_rival_country = {
				NOT = { truce_with = root }
				navy_size = root
			}
		}
		modifier = {
			factor = 2.0
			NOT = { navy_size_percentage = 0.3 }
			NOT = { navy_size = 150 }
		}
		modifier = {
			factor = 0.5
			navy_size = 100
		}
		modifier = {
			factor = 0.25
			navy_size = 200
		}
		modifier = {
			factor = 0.5
			NOT = { num_of_ports = 3 }
		}
		modifier = {
			factor = 2
			has_idea_group = naval_ideas
		}
	}
	task_requirements = {
		navy_size_percentage = 0.75
	}
	fail_if = {
		NOT = {
			any_owned_province = {
				has_port = yes
			}
		}
	}
	task_completed_effect = {
		add_estate_loyalty = {
			estate = estate_burghers
			loyalty = 10
		}
		create_admiral = {
			tradition = 40
		}
	}
    failing_effect = {
        add_estate_loyalty_modifier = {
            estate = estate_burghers
			desc = EST_VAL_AGENDA_DENIED
			loyalty = -5
			duration = 7300
        }
    }
}


#Bigger Fleet than Rival
estate_burghers_bigger_fleet_than_rival = {
	can_select = {
		primitives = no
		any_owned_province = {
			has_port = yes
			is_core = root
		}
		NOT = { government = native }
		NOT = { has_country_modifier = naval_enthusiasm_mission }

		NOT = { navy_size_percentage = 1 }

		any_rival_country = {
			NOT = { war_with = root }
			NOT = { root = { navy_size = prev } }
			navy_balance = {
				who = root
				value = 1.05
			}
			NOT = {
				navy_balance = {
					who = root
					value = 1.25
				}
			}
		}
	}
	selection_weight = {
		factor = 5
	}
	pre_effect = {
		random_rival_country = {
			limit = {
				NOT = { war_with = root }
				NOT = { root = { navy_size = prev } }
				navy_balance = {
					who = root
					value = 1.05
				}
				NOT = {
					navy_balance = {
						who = root
						value = 1.25
					}
				}
			}
			save_event_target_as = agenda_country
		}
	}
	provinces_to_highlight = {
		is_capital_of = event_target:agenda_country
	}
	task_requirements = {
		if = {
			limit = { event_target:agenda_country = { num_of_cities = 1 } }
			navy_size = event_target:agenda_country
		}
		else = {
			always = yes
		}
	}
	task_completed_effect = {
		add_estate_loyalty = {
			estate = estate_burghers
			loyalty = 10
		}
		add_country_modifier = {
			name = naval_enthusiasm_mission
			duration = 3650
		}
	}
	fail_if = {
		NOT = {
			any_owned_province = {
				has_port = yes
			}
		}
	}
    failing_effect = {
        add_estate_loyalty_modifier = {
            estate = estate_burghers
			desc = EST_VAL_AGENDA_DENIED
			loyalty = -5
			duration = 7300
        }
    }
}


#Improve dip rep
estate_burghers_improve_dip_rep = {
	can_select = {
		NOT = { diplomatic_reputation = -2 }
	}
	selection_weight = {
		factor = 1
	}
	task_requirements = {
		diplomatic_reputation = 1
	}
	task_completed_effect = {
		add_estate_loyalty = {
			estate = estate_burghers
			loyalty = 10
		}
		add_prestige = 10
	}
    failing_effect = {
        add_estate_loyalty_modifier = {
            estate = estate_burghers
			desc = EST_VAL_AGENDA_DENIED
			loyalty = -5
			duration = 7300
        }
    }
}


#Get a treasury
estate_burghers_get_cash = {
	can_select = {
		NOT = { years_of_income = 0.5 }
		NOT = { num_of_loans = 1 }
		is_at_war = no
	}
	selection_weight = {
		factor = 1
	}
	task_requirements = {
		years_of_income = 2.5
		NOT = { num_of_loans = 1 }
	}
	fail_if = {
		num_of_loans = 1
	}
	task_completed_effect = {
		if = {
			limit = {
				inflation = 5
			}
			add_estate_loyalty = {
				estate = estate_burghers
				loyalty = 10
			}
			generate_scaled_advisor_of_type_and_religion_effect = {
				type = master_of_mint
				religion = root
				discount = yes
			}
		}
		else = {
			add_estate_loyalty = {
				estate = estate_burghers
				loyalty = 15
			}
		}
	}
    failing_effect = {
        add_estate_loyalty_modifier = {
            estate = estate_burghers
			desc = EST_VAL_AGENDA_DENIED
			loyalty = -5
			duration = 7300
        }
    }
}


#Discover X in America
estate_burghers_discover_X_in_america = {
	can_select = {
		OR = {
			num_of_conquistadors = 1
			num_of_explorers = 1
		}
		num_of_ports = 1
		any_province = {
			range = root
			OR = {
				continent = north_america
				continent = south_america
				continent = new_world
			}
			has_port = yes
			is_wasteland = no
			is_city = no
			NOT = { has_discovered = root }
			area_for_scope_province = {
				type = all
				NOT = { has_discovered = root }
			}
		}
		NOT = { has_country_modifier = colonial_enthusiasm }
	}
	selection_weight = {
		factor = 2.5
		modifier = {
			factor = 2
			OR = {
				tag = A01 #Lorent
				tag = A02 #Deranne
				tag = A21 #Venail
				tag = A33 #Verne
				tag = A11 #Pearlsedge
				tag = A47 #Eborthil
				tag = A29 #Busilar
			}
		}
		modifier = {
			factor = 1.5
			OR = {
				tag = A05 #Reveria
				tag = U08 #Ekha
				tag = A79 #Gnomish Hierarchy
				tag = A09 #Sorncost
			}
		}
		modifier = {
			factor = 1.25
			OR = {
				tag = Z08 #Bjarnrik
				tag = A19 #Portnamm
				tag = A80 #Iochand
				tag = Z10 #Revrhavn
			}
		}
		modifier = {
			factor = 0.5
			NOT = { num_of_colonists = 1 }
		}
		modifier = {
			factor = 2
			num_of_colonists = 2
		}
		modifier = {
			factor = 2
			OR = {
				num_of_conquistadors = 2
				num_of_explorers = 2
			}
		}
	}
	pre_effect = {
		random_province = {
			limit = {
				range = root
				OR = {
					continent = north_america
					continent = south_america
					continent = new_world
				}
				has_port = yes
				is_wasteland = no
				is_city = no
				NOT = { has_discovered = root }
				area_for_scope_province = {
					type = all
					NOT = { has_discovered = root }
				}
			}
			save_event_target_as = agenda_province
		}
	}
	task_requirements = {
		event_target:agenda_province = {
			area_for_scope_province = {
				custom_trigger_tooltip = {
					tooltip = discovered_by_root
					has_discovered = root
				}
			}
		}
	}
	task_completed_effect = {
		add_estate_loyalty = {
			estate = estate_burghers
			loyalty = 10
		}
		add_country_modifier = {
			name = colonial_enthusiasm
			duration = 3650
		}
	}
	fail_if = {
		OR = {
			NOT = { num_of_ports = 1 }
			NOT = { has_idea = quest_for_the_new_world }
		}
	}
    failing_effect = {
        add_estate_loyalty_modifier = {
            estate = estate_burghers
			desc = EST_VAL_AGENDA_DENIED
			loyalty = -5
			duration = 7300
        }
    }
}


#Colonise something in X area
estate_burghers_colonise_X = {
	can_select = {
		num_of_colonists = 1
		num_of_ports = 1
		any_province = {
			range = root
			is_city = no
			is_wasteland = no
			OR = {
				has_port = yes
				any_neighbor_province = {
					OR = {
						owned_by = root
						owner = {
							is_colonial_nation_of = root
						}
					}
				}
			}
			has_discovered = root
			area_for_scope_province = {
				type = all
				NOT = { owned_by = root }
				NOT = {
					owner = {
						is_colonial_nation_of = root
					}
				}
			}
			OR = {
				NOT = { colonial_claim_by_anyone_of_religion = root }
				is_religion_grant_colonial_claim = root
			}
			development = 3	#Anbennar - added so it doesnt target unfinished provinces
		}
		NOT = { has_country_modifier = colonial_enthusiasm }
	}
	selection_weight = {
		factor = 2.5
		modifier = {
			factor = 2
			OR = {
				tag = A01 #Lorent
				tag = A02 #Deranne
				tag = A21 #Venail
				tag = A33 #Verne
				tag = A11 #Pearlsedge
				tag = A47 #Eborthil
				tag = A29 #Busilar
			}
		}
		modifier = {
			factor = 1.5
			OR = {
				tag = A05 #Reveria
				tag = U08 #Ekha
				tag = A79 #Gnomish Hierarchy
				tag = A09 #Sorncost
			}
		}
		modifier = {
			factor = 1.25
			OR = {
				tag = Z08 #Bjarnrik
				tag = A19 #Portnamm
				tag = A80 #Iochand
				tag = Z10 #Revrhavn
			}
		}
		modifier = {
			factor = 2
			num_of_colonists = 2
		}
		modifier = {
			factor = 1.5
			any_country = {
				is_colonial_nation_of = root
			}
		}
	}
	pre_effect = {
		random_province = {
			limit = {
				range = root
				is_city = no
				is_wasteland = no
				OR = {
					has_port = yes
					any_neighbor_province = {
						OR = {
							owned_by = root
							owner = {
								is_colonial_nation_of = root
							}
						}
					}
				}
				has_discovered = root
				area_for_scope_province = {
					type = all
					NOT = { owned_by = root }
					NOT = {
						owner = {
							is_colonial_nation_of = root
						}
					}
					development = 3
				}
				OR = {
					NOT = { colonial_claim_by_anyone_of_religion = root }
					is_religion_grant_colonial_claim = root
				}
			}
			save_event_target_as = agenda_province
		}
		random_province = {
			limit = {
				range = root
				is_city = no
				is_wasteland = no
				any_neighbor_province = {
					OR = {
						owned_by = root
						owner = {
							is_colonial_nation_of = root
						}
					}
				}
				has_discovered = root
				area_for_scope_province = {
					type = all
					NOT = { owned_by = root }
					NOT = {
						owner = {
							is_colonial_nation_of = root
						}
					}
					development = 3
				}
				OR = {
					continent = north_america
					continent = south_america
					continent = new_world
				}
				OR = {
					NOT = { colonial_claim_by_anyone_of_religion = root }
					is_religion_grant_colonial_claim = root
				}
			}
			save_event_target_as = agenda_province
		}
	}
	provinces_to_highlight = {
		area_for_scope_province = {
			province_id = event_target:agenda_province
		}
	}
	task_requirements = {
		custom_trigger_tooltip = {
			tooltip = estate_burghers_colonise_X_requirements
			event_target:agenda_province = {
				area_for_scope_province = {
					is_city = yes
					OR = {
						owned_by = root
						owner = {
							is_colonial_nation_of = root
						}
					}
				}
			}
		}
	}
	task_completed_effect = {
		add_estate_loyalty = {
			estate = estate_burghers
			loyalty = 10
		}
		add_country_modifier = {
			name = colonial_enthusiasm
			duration = 3650
		}
	}
	fail_if = {
		OR = {
			AND = {
				NOT = { num_of_colonists = 1 }
				event_target:agenda_province = {
					NOT = { country_or_non_sovereign_subject_holds = root }
				}
			}
			event_target:agenda_province = {
				NOT = { range = root }
				is_colony = no
				NOT = { country_or_non_sovereign_subject_holds = ROOT }
			}
			event_target:agenda_province = {
				area_for_scope_province = {
					type = all
					is_city = yes
					NOT = { country_or_non_sovereign_subject_holds = root }
				}
			}
		}
	}
    failing_effect = {
        add_estate_loyalty_modifier = {
            estate = estate_burghers
			desc = EST_VAL_AGENDA_DENIED
			loyalty = -5
			duration = 7300
        }
    }
}


#Colonise more in X area
estate_burghers_colonise_more_X = {
	can_select = {
		num_of_colonists = 1
		num_of_ports = 1
		any_province = {
			range = root
			is_city = no
			is_wasteland = no
			has_discovered = root
			area_for_scope_province = {
				OR = {
					owned_by = root
					owner = {
						is_colonial_nation_of = root
					}
				}
				is_city = yes
			}
			area_for_scope_province = {
				type = all
				OR = {
					owned_by = root
					owner = {
						is_colonial_nation_of = root
					}
					is_city = no
				}
				development = 3
			}
			OR = {
				NOT = { colonial_claim_by_anyone_of_religion = root }
				is_religion_grant_colonial_claim = root
			}
		}
		NOT = { has_country_modifier = colonial_enthusiasm }
	}
	selection_weight = {
		factor = 2.5
		modifier = {
			factor = 2
			OR = {
				tag = A01 #Lorent
				tag = A02 #Deranne
				tag = A21 #Venail
				tag = A33 #Verne
				tag = A11 #Pearlsedge
				tag = A47 #Eborthil
				tag = A29 #Busilar
			}
		}
		modifier = {
			factor = 1.5
			OR = {
				tag = A05 #Reveria
				tag = U08 #Ekha
				tag = A79 #Gnomish Hierarchy
				tag = A09 #Sorncost
			}
		}
		modifier = {
			factor = 1.25
			OR = {
				tag = Z08 #Bjarnrik
				tag = A19 #Portnamm
				tag = A80 #Iochand
				tag = Z10 #Revrhavn
			}
		}
		modifier = {
			factor = 2
			num_of_colonists = 2
		}
		modifier = {
			factor = 1.5
			any_country = {
				is_colonial_nation_of = root
			}
		}
	}
	pre_effect = {
		random_province = {
			limit = {
				range = root
				is_city = no
				is_wasteland = no
				has_discovered = root
				area_for_scope_province = {
					OR = {
						owned_by = root
						owner = {
							is_colonial_nation_of = root
						}
					}
					is_city = yes
				}
				area_for_scope_province = {
					type = all
					OR = {
						owned_by = root
						owner = {
							is_colonial_nation_of = root
						}
						is_city = no
					}
					development = 3
				}
				OR = {
					NOT = { colonial_claim_by_anyone_of_religion = root }
					is_religion_grant_colonial_claim = root
				}
				development = 3
			}
			save_event_target_as = agenda_province
			area = {
				limit = {
					OR = {
						owned_by = root
						owner = {
							is_colonial_nation_of = root
						}
					}
					is_city = yes
				}
				save_event_target_as = agenda_owned_province
			}
		}
	}
	provinces_to_highlight = {
		area_for_scope_province = {
			province_id = event_target:agenda_province
		}
		OR = {
			is_city = no
			owner = {
				NOT = { tag = root }
				NOT = { is_colonial_nation_of = root }
			}
		}
	}
	task_requirements = {
		custom_trigger_tooltip = {
			tooltip = estate_burghers_colonise_more_X_requirements
			event_target:agenda_province = {
				area_for_scope_province = {
					type = all
					is_city = yes
					OR = {
						owned_by = root
						owner = {
							is_colonial_nation_of = root
						}
					}
				}
			}
		}
	}
	task_completed_effect = {
		add_estate_loyalty = {
			estate = estate_burghers
			loyalty = 10
		}
		add_country_modifier = {
			name = colonial_enthusiasm
			duration = 3650
		}
	}
	fail_if = {
		event_target:agenda_province = {
			area_for_scope_province = {
				is_city = yes
				NOT = { owned_by = root }
				NOT = {
					owner = {
						is_colonial_nation_of = root
					}
				}
			}
		}
	}
    failing_effect = {
        add_estate_loyalty_modifier = {
            estate = estate_burghers
			desc = EST_VAL_AGENDA_DENIED
			loyalty = -5
			duration = 7300
        }
    }
}


#Get a Colonial Nation in X colonial region
estate_burghers_colonial_nation = {
	can_select = {
		num_of_colonists = 1
		num_of_ports = 1
		#Anbennar
		NOT = {
			capital_scope = {
				OR = {
					continent = north_america
					continent = south_america
					continent = new_world
				}
			}
		}
		#
		any_owned_province = {
			OR = {
				continent = north_america
				continent = south_america
				continent = new_world
			}
			NOT = {
				calc_true_if = {
					amount = 5
					colonial_region_for_scope_province = {
						type = all
						country_or_non_sovereign_subject_holds = root
					}
				}
			}
			calc_true_if = {
				amount = 3
				colonial_region_for_scope_province = {
					type = all
					country_or_non_sovereign_subject_holds = root
					is_city = yes
				}
			}
			OR = {
				NOT = { colonial_claim_by_anyone_of_religion = root }
				is_religion_grant_colonial_claim = root
			}
		}
		NOT = { has_country_modifier = agenda_colonial_administration }
	}
	selection_weight = {
		factor = 2.5
		modifier = {
			factor = 2
			OR = {
				tag = A01 #Lorent
				tag = A02 #Deranne
				tag = A21 #Venail
				tag = A33 #Verne
				tag = A11 #Pearlsedge
				tag = A47 #Eborthil
				tag = A29 #Busilar
			}
		}
		modifier = {
			factor = 1.5
			OR = {
				tag = A05 #Reveria
				tag = U08 #Ekha
				tag = A79 #Gnomish Hierarchy
				tag = A09 #Sorncost
			}
		}
		modifier = {
			factor = 1.25
			OR = {
				tag = Z08 #Bjarnrik
				tag = A19 #Portnamm
				tag = A80 #Iochand
				tag = Z10 #Revrhavn
			}
		}
		modifier = {
			factor = 2
			num_of_colonists = 2
		}
		modifier = {
			factor = 1.5
			any_country = {
				is_colonial_nation_of = root
			}
		}
	}
	pre_effect = {
		random_owned_province = {
			limit = {
				OR = {
					continent = north_america
					continent = south_america
					continent = new_world
				}
				NOT = {
					calc_true_if = {
						amount = 5
						colonial_region_for_scope_province = {
							type = all
							country_or_non_sovereign_subject_holds = root
						}
					}
				}
				calc_true_if = {
					amount = 3
					colonial_region_for_scope_province = {
						type = all
						country_or_non_sovereign_subject_holds = root
						is_city = yes
					}
				}
				OR = {
					NOT = { colonial_claim_by_anyone_of_religion = root }
					is_religion_grant_colonial_claim = root
				}
			}
			save_event_target_as = agenda_province
		}
	}
	provinces_to_highlight = {
		colonial_region = event_target:agenda_province
	}
	task_requirements = {
		custom_trigger_tooltip = {
			tooltip = estate_burghers_colonial_nation_requirements_tooltip
			any_subject_country = {
				is_colonial_nation_of = root
				capital_scope = { colonial_region = event_target:agenda_province }
				num_of_cities = 5
			}
		}
	}
	task_completed_effect = {
		add_estate_loyalty = {
			estate = estate_burghers
			loyalty = 10
		}
		add_country_modifier = {
			name = agenda_colonial_administration
			duration = 5475
		}
	}
    failing_effect = {
        add_estate_loyalty_modifier = {
            estate = estate_burghers
			desc = EST_VAL_AGENDA_DENIED
			loyalty = -5
			duration = 7300
        }
    }
}



#Get X provinces in a trade company in X region
estate_burghers_expand_trade_company = {
	can_select = {
		num_of_ports = 1
		any_owned_province = {
			is_owned_by_trade_company = yes
			NOT = { trade_company_size = 10 }
		}
	}
	selection_weight = {
		factor = 2.5
		#modifier = { #invalid tags
		#	factor = 2
		#	OR = {
		#		tag = POR
		#		tag = CAS
		#		tag = GBR
		#		tag = NED
		#	}
		#}
		modifier = {
			factor = 1.5
			num_of_colonists = 1
		}
		modifier = {
			factor = 2
			num_of_trade_companies = 2
		}
		modifier = {
			factor = 2
			num_of_strong_trade_companies = 2
		}
	}
	pre_effect = {
		set_variable = {
			which = estate_burghers_expand_trade_company_variable
			value = 0
		}
		random_owned_province = {
			limit = {
				is_owned_by_trade_company = yes
				NOT = { trade_company_size = 10 }
			}
			save_event_target_as = agenda_province

			if = {
				limit = {
					NOT = { trade_company_size = 4 }
				}
				root = {
					set_variable = {
						which = estate_burghers_expand_trade_company_variable
						value = 1
					}
				}
			}
			else_if = {
				limit = {
					NOT = { trade_company_size = 6 }
				}
				root = {
					set_variable = {
						which = estate_burghers_expand_trade_company_variable
						value = 2
					}
				}
			}
			else = {
				root = {
					set_variable = {
						which = estate_burghers_expand_trade_company_variable
						value = 3
					}
				}
			}
		}
	}
	provinces_to_highlight = {
		trade_company_region = event_target:agenda_province
	}
	task_requirements = {
		if = {
			limit = {
				check_variable = {
					which = estate_burghers_expand_trade_company_variable
					value = 3
				}
			}
			event_target:agenda_province = {
				trade_company_size = 10
			}
		}
		else_if = {
			limit = {
				check_variable = {
					which = estate_burghers_expand_trade_company_variable
					value = 2
				}
			}
			event_target:agenda_province = {
				trade_company_size = 8
			}
		}
		else = {
			event_target:agenda_province = {
				trade_company_size = 5
			}
		}
	}
	task_completed_effect = {
		add_estate_loyalty = {
			estate = estate_burghers
			loyalty = 15
		}
	}
    failing_effect = {
        add_estate_loyalty_modifier = {
            estate = estate_burghers
			desc = EST_VAL_AGENDA_DENIED
			loyalty = -5
			duration = 7300
        }
    }
}



#Trade post in India
estate_burghers_trade_post_in_india = {
	can_select = {
		is_at_war = no
		capital_scope = {
			continent = europe
		}
		num_of_ports = 6
		NOT = {
			any_owned_province = {
				superregion = rahen_superregion
			}
		}
		any_province = { #rahen_superregion scope does not work due to load order
			superregion = rahen_superregion
			has_port = yes
			range = ROOT
			has_discovered = ROOT
		}
	}
	selection_weight = {
		factor = 2.5
		modifier = {
			factor = 1.5
			num_of_colonists = 1
		}
		modifier = {
			factor = 2
			num_of_trade_companies = 2
		}
		modifier = {
			factor = 2
			num_of_strong_trade_companies = 2
		}
	}
	provinces_to_highlight = {
		superregion = rahen_superregion
		OR = {
			trade_goods = spices
			trade_goods = silk
			trade_goods = incense
			trade_goods = chinaware
		}
		has_port = yes
	}
	task_requirements = {
		any_owned_province = {
			superregion = rahen_superregion
			OR = {
				trade_goods = spices
				trade_goods = silk
				trade_goods = incense
				trade_goods = chinaware
			}
			has_port = yes
		}
	}
	task_completed_effect = {
		add_estate_loyalty = {
			estate = estate_burghers
			loyalty = 10
		}
		add_country_modifier = {
			name = growing_chinaware_trade
			duration = 3650
		}
		if = {
			limit = {
				NOT = {
					any_owned_province = {
						superregion = rahen_superregion
						OR = {
							trade_goods = spices
							trade_goods = silk
							trade_goods = incense
							trade_goods = chinaware
						}
						has_port = yes
					}
				}
			}
			custom_tooltip = estate_burghers_trade_post_in_india_reward_tooltip
		}
		else = {
			random_owned_province = {
				limit = {
					superregion = rahen_superregion
					OR = {
						trade_goods = spices
						trade_goods = silk
						trade_goods = incense
						trade_goods = chinaware
					}
					has_port = yes
				}
				add_province_modifier = {
					name = trade_post_in_india
					duration = -1
				}
			}
		}
	}
    failing_effect = {
        add_estate_loyalty_modifier = {
            estate = estate_burghers
			desc = EST_VAL_AGENDA_DENIED
			loyalty = -5
			duration = 7300
        }
    }
}


#Trade post in Malacca
estate_burghers_trade_post_in_malacca = {
	can_select = {
		is_at_war = no
		capital_scope = {
			continent = europe
		}
		num_of_ports = 6
		NOT = {
			any_owned_province = {
				superregion = south_haless_superregion
			}
		}
		any_province = {
			superregion = south_haless_superregion
			has_port = yes
			range = ROOT
			has_discovered = ROOT
		}
	}
	selection_weight = {
		factor = 2.5
		modifier = {
			factor = 1.5
			num_of_colonists = 1
		}
		modifier = {
			factor = 2
			num_of_trade_companies = 2
		}
		modifier = {
			factor = 2
			num_of_strong_trade_companies = 2
		}
	}
	provinces_to_highlight = {
		superregion = south_haless_superregion
		OR = {
			trade_goods = spices
			trade_goods = cloves
			trade_goods = incense
			trade_goods = chinaware
		}
		has_port = yes
	}
	task_requirements = {
		any_owned_province = {
			superregion = south_haless_superregion
			OR = {
				trade_goods = spices
				trade_goods = cloves
				trade_goods = incense
				trade_goods = chinaware
			}
			has_port = yes
		}
	}
	task_completed_effect = {
		add_estate_loyalty = {
			estate = estate_burghers
			loyalty = 10
		}
		if = {
			limit = {
				NOT = {
					any_owned_province = {
						superregion = south_haless_superregion
						OR = {
							trade_goods = spices
							trade_goods = cloves
							trade_goods = incense
							trade_goods = chinaware
						}
						has_port = yes
					}
				}
			}
			custom_tooltip = estate_burghers_trade_post_in_malacca_reward_tooltip
		}
		else = {
			random_owned_province = {
				limit = {
					superregion = south_haless_superregion
					OR = {
						trade_goods = spices
						trade_goods = cloves
						trade_goods = incense
						trade_goods = chinaware
					}
					has_port = yes
				}
				add_province_modifier = {
					name = trade_post_in_malacca
					duration = -1
				}
			}
		}
	}
    failing_effect = {
        add_estate_loyalty_modifier = {
            estate = estate_burghers
			desc = EST_VAL_AGENDA_DENIED
			loyalty = -5
			duration = 7300
        }
    }
}


#Trade post in China
estate_burghers_trade_post_in_china = {
	can_select = {
		is_at_war = no
		capital_scope = {
			continent = europe
		}
		num_of_ports = 6
		any_province = {
			superregion = yanshen_superregion
			has_port = yes
			range = ROOT
			has_discovered = ROOT
		}
		NOT = {
			any_owned_province = {
				superregion = yanshen_superregion
			}
		}
		NOT = { has_country_modifier = growing_chinaware_trade }
	}
	selection_weight = {
		factor = 2.5
		modifier = {
			factor = 1.5
			num_of_colonists = 1
		}
		modifier = {
			factor = 2
			num_of_trade_companies = 2
		}
		modifier = {
			factor = 2
			num_of_strong_trade_companies = 2
		}
	}
	provinces_to_highlight = {
		superregion = yanshen_superregion
		OR = {
			trade_goods = spices
			trade_goods = silk
			trade_goods = incense
			trade_goods = chinaware
		}
		has_port = yes
	}
	task_requirements = {
		any_owned_province = {
			superregion = yanshen_superregion
			OR = {
				trade_goods = spices
				trade_goods = silk
				trade_goods = incense
				trade_goods = chinaware
			}
			has_port = yes
		}
	}
	task_completed_effect = {
		add_estate_loyalty = {
			estate = estate_burghers
			loyalty = 10
		}
		if = {
			limit = {
				NOT = {
					any_owned_province = {
						superregion = yanshen_superregion
						OR = {
							trade_goods = spices
							trade_goods = silk
							trade_goods = incense
							trade_goods = chinaware
						}
						has_port = yes
					}
				}
			}
			custom_tooltip = estate_burghers_trade_post_in_china_reward_tooltip
		}
		else = {
			random_owned_province = {
				limit = {
					superregion = yanshen_superregion
					OR = {
						trade_goods = spices
						trade_goods = silk
						trade_goods = incense
						trade_goods = chinaware
					}
					has_port = yes
				}
				add_province_modifier = {
					name = trade_post_in_china
					duration = -1
				}
			}
		}
	}
    failing_effect = {
        add_estate_loyalty_modifier = {
            estate = estate_burghers
			desc = EST_VAL_AGENDA_DENIED
			loyalty = -5
			duration = 7300
        }
    }
}


#Get 3 silk provinces
estate_burghers_silk_trade = {
	can_select = {
		is_at_war = no
		capital_scope = {
			continent = europe
		}
		any_owned_province = {
			OR = {
				superregion = rahen_superregion
				superregion = yanshen_superregion
			}
		}
		NOT = { silk = 2 }
	}
	selection_weight = {
		factor = 2.5
		modifier = {
			factor = 1.5
			num_of_colonists = 1
		}
		modifier = {
			factor = 2
			num_of_trade_companies = 3
		}
		modifier = {
			factor = 2
			num_of_strong_trade_companies = 2
		}
	}
	provinces_to_highlight = {
		trade_goods = silk
		OR = {
			has_port = yes
			any_neighbor_province = {
				owned_by = root
			}
		}
		has_discovered = root
		NOT = { owned_by = root }
	}
	task_requirements = {
		silk = 3
	}
	task_completed_effect = {
		add_estate_loyalty = {
			estate = estate_burghers
			loyalty = 10
		}
		add_country_modifier = {
			name = growing_silk_trade
			duration = 5475
		}
	}
    failing_effect = {
        add_estate_loyalty_modifier = {
            estate = estate_burghers
			desc = EST_VAL_AGENDA_DENIED
			loyalty = -5
			duration = 7300
        }
    }
}


#Get 5 spice provinces
estate_burghers_spice_trade = {
	can_select = {
		is_at_war = no
		capital_scope = {
			continent = europe
		}
		any_owned_province = {
			OR = {
				superregion = rahen_superregion
				trade_company_region = trade_company_indonesia
			}
		}
		NOT = { spices = 3 }
	}
	selection_weight = {
		factor = 2.5
		modifier = {
			factor = 1.5
			num_of_colonists = 1
		}
		modifier = {
			factor = 2
			num_of_trade_companies = 3
		}
		modifier = {
			factor = 2
			num_of_strong_trade_companies = 2
		}
	}
	provinces_to_highlight = {
		trade_goods = spices
		OR = {
			has_port = yes
			any_neighbor_province = {
				owned_by = root
			}
		}
		has_discovered = root
		NOT = { owned_by = root }
	}
	task_requirements = {
		spices = 5
	}
	task_completed_effect = {
		add_estate_loyalty = {
			estate = estate_burghers
			loyalty = 10
		}
		add_country_modifier = {
			name = growing_spice_trade
			duration = 5475
		}
	}
    failing_effect = {
        add_estate_loyalty_modifier = {
            estate = estate_burghers
			desc = EST_VAL_AGENDA_DENIED
			loyalty = -5
			duration = 7300
        }
    }
}

#Get 3 tea provinces
estate_burghers_tea_trade = {
	can_select = {
		is_at_war = no
		capital_scope = {
			continent = europe
		}
		any_owned_province = {
			superregion = yanshen_superregion
		}
		NOT = { tea = 2 }
	}
	selection_weight = {
		factor = 2.5
		modifier = {
			factor = 1.5
			num_of_colonists = 1
		}
		modifier = {
			factor = 2
			num_of_trade_companies = 3
		}
		modifier = {
			factor = 2
			num_of_strong_trade_companies = 2
		}
		#modifier = { #invalid tags
		#	factor = 2.5
		#	OR = {
		#		tag = ENG
		#		tag = GBR
		#	}
		#}
	}
	provinces_to_highlight = {
		trade_goods = tea
		OR = {
			has_port = yes
			any_neighbor_province = {
				owned_by = root
			}
		}
		has_discovered = root
		NOT = { owned_by = root }
	}
	task_requirements = {
		tea = 3
	}
	task_completed_effect = {
		add_estate_loyalty = {
			estate = estate_burghers
			loyalty = 10
		}
		add_country_modifier = {
			name = growing_tea_trade
			duration = 5475
		}
	}
    failing_effect = {
        add_estate_loyalty_modifier = {
            estate = estate_burghers
			desc = EST_VAL_AGENDA_DENIED
			loyalty = -5
			duration = 7300
        }
    }
}


#Reduce corruption
estate_burghers_reduce_corruption = {
	can_select = {
		corruption = 5
		is_bankrupt = no
		NOT = { has_country_modifier = freedom_from_corruption }
	}
	selection_weight = {
		factor = 1.5
		modifier = {
			factor = 0.5
			is_at_war = yes
		}
		modifier = {
			factor = 2
			corruption = 10
		}
		modifier = {
			factor = 1.5
			corruption = 15
		}
		modifier = {
			factor = 1.5
			corruption = 20
		}
	}
	pre_effect = {
		set_variable = {
			which = estate_burghers_reduce_corruption_var
			value = 0
		}
		if = {
			limit = {
				NOT = {
					corruption = 10
				}
			}
			set_variable = {
				which = estate_burghers_reduce_corruption_var
				value = 1
			}
		}
		else_if = {
			limit = {
				NOT = {
					corruption = 15
				}
			}
			set_variable = {
				which = estate_burghers_reduce_corruption_var
				value = 2
			}
		}
		else = {
			set_variable = {
				which = estate_burghers_reduce_corruption_var
				value = 3
			}
		}
	}
	task_requirements = {
		if = {
			limit = {
				check_variable = {
					which = estate_burghers_reduce_corruption_var
					value = 3
				}
			}
			NOT = { corruption = 10 }
		}
		else_if = {
			limit = {
				check_variable = {
					which = estate_burghers_reduce_corruption_var
					value = 2
				}
			}
			NOT = { corruption = 5 }
		}
		else = {
			NOT = { corruption = 1 }
		}
	}
    task_completed_effect = {
		add_estate_loyalty = {
			estate = estate_burghers
			loyalty = 10
		}
		add_country_modifier = {
			name = freedom_from_corruption
			duration = 5475
		}
    }
    failing_effect = {
        add_estate_loyalty_modifier = {
            estate = estate_burghers
			desc = EST_VAL_AGENDA_DENIED
			loyalty = -5
			duration = 7300
        }
    }
}


#Protect against Piracy
estate_burghers_protect_against_piracy = {
	can_select = {
		any_active_trade_node = {
			trade_share = {
				country = root
				share = 20
			}
			privateer_power = {
				share = 20
			}
			NOT = {
				privateer_power = {
					share = 1
					country = root
				}
			}
		}
	}
	selection_weight = {
		factor = 2
		modifier = {
			factor = 2
			any_active_trade_node = {
				trade_share = {
					country = root
					share = 20
				}
				privateer_power = {
					share = 20
				}
				NOT = {
					privateer_power = {
						share = 1
						country = root
					}
				}
				OR = {
					trade_share = {
						country = root
						share = 35
					}
					privateer_power = {
						share = 35
					}
				}
			}
		}
	}
	pre_effect = {
		random_active_trade_node = {
			limit = {
				trade_share = {
					country = root
					share = 20
				}
				privateer_power = {
					share = 20
				}
				NOT = {
					privateer_power = {
						share = 1
						country = root
					}
				}
			}
			save_event_target_as = agenda_trade_node
		}
		random_active_trade_node = {
			limit = {
				trade_share = {
					country = root
					share = 20
				}
				privateer_power = {
					share = 20
				}
				NOT = {
					privateer_power = {
						share = 1
						country = root
					}
				}
				OR = {
					trade_share = {
						country = root
						share = 35
					}
					privateer_power = {
						share = 35
					}
				}
			}
			save_event_target_as = agenda_trade_node
			if = {
				limit = {
					OR = {
						is_sea = yes
						has_port = no #shouldn't ever be the case, but just in case...
					}
				}
				save_event_target_as = agenda_trade_node_sea
			}
			else = {
				sea_zone = {
					save_event_target_as = agenda_trade_node_sea
				}
			}
		}
	}
	provinces_to_highlight = {
		province_id = event_target:agenda_trade_node
	}
	task_requirements = {
		event_target:agenda_trade_node = {
			trade_share = {
				country = root
				share = 20
			}
		}
		NOT = {
			any_country = {
				event_target:agenda_trade_node = {
					privateer_power = {
						share = 3
						country = PREV
					}
				}
			}
		}
	}
	fail_if = {
		event_target:agenda_trade_node = {
			NOT = {
				trade_share = {
					country = root
					share = 10
				}
			}
		}
	}
    task_completed_effect = {
		add_estate_loyalty = {
			estate = estate_burghers
			loyalty = 15
		}
    }
    failing_effect = {
        add_estate_loyalty_modifier = {
            estate = estate_burghers
			desc = EST_VAL_AGENDA_DENIED
			loyalty = -5
			duration = 7300
        }
    }
}