bookmark =
{
	name = "DEEPWOODS_NAME"
	desc = "DEEPWOODS_DESC"
	date = 1444.11.11
	
	center = 3053
	default = no
	
	country = I26	
	country = I27	
	country = I30	
	
	country = I40	#Cursed Howl
	country = I42	#Blackmoon
	country = I41	#Sapchopper
	country = I39	#Blightseed
	
	country = I35	#Brambleskinner
	country = I37	#Verminusk
	country = U12	#Oubbligschild

	easy_country = I26
	easy_country = I41
	easy_country = I40

}