vampire_blood_coersion = {
	category = covert
	
	is_visible = {
		ai = no
		has_country_flag = founded_blood_court
		FROM = {
			capital_scope = {
				OR= {
					continent = europe
					range = ROOT
				}
			}
			has_country_flag = has_vampires
            NOT = { has_estate_privilege = estate_vampires_organization_the_blood_court }
			NOT = { has_estate_privilege = estate_vampires_organization_vampiric_emigres }
			#only allowed for nations that have Bloody Aristocracy or Vampire Lord
		}
    }
	
	is_allowed = {
		ROOT = {
			has_country_flag = founded_blood_court
			has_spy_network_in = {
				who = FROM
				value = 60
			}
		}
		FROM = {
			capital_scope = {
				OR= {
					continent = europe
					range = ROOT
				}
			}
			has_country_flag = has_vampires
            NOT = { has_estate_privilege = estate_vampires_organization_the_blood_court }
			NOT = { has_estate_privilege = estate_vampires_organization_vampiric_emigres }
		}
	}

    on_accept = {
		FROM = {
			country_event = { id = asheniande.5 days = 10 random = 10 }#Blood Takeover event
		}
		ROOT = {
			add_spy_network_in = {
   				who = FROM
    			value = -60
			}
		}
	}
	ai_will_do = {
		always = no
	}
}