#221 - Murcia | Gaweston

owner = A13
controller = A13
add_core = A13
culture = gawedi
religion = regent_court

hre = no

base_tax = 5
base_production = 5
base_manpower = 4

trade_goods = fur
center_of_trade = 1

capital = ""

is_city = yes
fort_15th = yes










add_permanent_province_modifier = {
	name = halfling_minority_oppressed_large
	duration = -1
}