#291 - Kharkov

owner = A33
controller = A33
add_core = A33
culture = vernman
religion = regent_court

hre = yes

base_tax = 3
base_production = 5
base_manpower = 3

trade_goods = copper

capital = ""

is_city = yes
fort_15th = yes







