# No previous file for Taraz
owner = U10
controller = U10
add_core = U10
culture = west_sandfang_gnoll
religion = xhazobkult

hre = no

base_tax = 2
base_production = 1
base_manpower = 2

trade_goods = slaves

capital = ""

is_city = yes







