# No previous file for Bahamas

owner = U09
controller = U09
add_core = U09
add_core = U01
culture = kheteratan
religion = khetist

hre = no

base_tax = 2
base_production = 2
base_manpower = 2

trade_goods = grain

capital = ""

is_city = yes



