#512 - Fatherwell

owner = U16
controller = U16
add_core = U16
culture = ourdi
religion = regent_court


base_tax = 4
base_production = 2
base_manpower = 3

trade_goods = salt

capital = ""

is_city = yes









