# No previous file for Tulangbewang
owner = F25
controller = F25
add_core = F25
culture = sun_elf
religion = bulwari_sun_cult

hre = no

base_tax = 2
base_production = 2
base_manpower = 1

trade_goods = gold

capital = ""

is_city = yes












add_permanent_province_modifier = {
	name = human_minority_coexisting_small
	duration = -1
}
