# No previous file for Guangnan
owner = F27
controller = F27
add_core = F27
add_core = F26
culture = firanyan_harpy
religion = the_hunt


base_tax = 2
base_production = 2
base_manpower = 2

trade_goods = cotton

capital = ""

is_city = yes









