# No previous file for Chongqing
owner = U05
controller = U05
add_core = U05
culture = brasanni
religion = bulwari_sun_cult

hre = no

base_tax = 2
base_production = 2
base_manpower = 1

trade_goods = wool

capital = ""

is_city = yes









