# No previous file for Rosstavik
owner = Z09
controller = Z09
add_core = Z09
culture = olavish
religion = skaldhyrric_faith

hre = no

base_tax = 2
base_production = 3
base_manpower = 1

trade_goods = iron

capital = ""

is_city = yes






