maghargma_one = {
	slot = 1
	generic = no
	ai = yes
	potential = {
		tag = I90
	}
	has_country_shield = yes
	
	maghargma_bolster_warband = {
		icon = mission_assemble_an_army
		required_missions = { }
		position = 1
		
		trigger = {
			army_size = 15
		}
		
		effect = {
			add_country_modifier = {
				name = bolstered_military
				duration = 3650
			}
		}
	}
	
	maghargma_enforcing_rule = {
		icon = mission_unite_the_princes
		required_missions = { maghargma_bolster_warband }
		position = 2
		
		trigger = {
			legitimacy = 100
			prestige = 40
		}
		
		effect = {
			add_country_modifier = {
				name = enforcing_our_rule
				duration = 9125
			}
		}
	}
	
	maghargma_rein_the_north = {
		icon = take_the_bishoprics
		required_missions = { maghargma_enforcing_rule }
		position = 3
		
		trigger = {
			total_development = 65
			army_strength = {
				who = J35
				value = 2
			}
			army_strength = {
				who = J36
				value = 2
			}
			army_strength = {
				who = J37
				value = 2
			}
			army_strength = {
				who = J38
				value = 2
			}
			army_strength = {
				who = J39
				value = 2
			}
			army_strength = {
				who = J40
				value = 2
			}
		}
		
		effect = {
			if = {
				limit = {
					exists = J38
				}
				vassalize = J38
			}
			if = {
				limit = {
					exists = J39
				}
				vassalize = J39
			}
			if = {
				limit = {
					exists = J40
				}
				vassalize = J40
			}
			5019 = { add_permanent_claim = ROOT }
			5020 = { add_permanent_claim = ROOT }
			5021 = { add_permanent_claim = ROOT }
			5022 = { add_permanent_claim = ROOT }
			5005 = { add_permanent_claim = ROOT }
			5024 = { add_permanent_claim = ROOT }
		}
	}
}

maghargma_two = {
	slot = 2
	generic = no
	ai = yes
	potential = {
		tag = I90
	}
	has_country_shield = yes
	
	maghargma_the_rock = {
		icon = conquer_tuscany
		required_missions = { }
		position = 1
		
		provinces_to_highlight = { province_id = 5039 }
		
		trigger = {
			NOT = { exists = J35 }
			owns_core_province = 5039
		}
		
		effect = {
			add_prestige = 10
			5039 = { 
				add_base_tax = 1
				add_base_production = 1
				add_base_manpower = 1
			}
		}
	}
	
	maghargma_east_fortify = {
		icon = fight_bosnian_heresies
		required_missions = { maghargma_the_rock }
		position = 2
		
		provinces_to_highlight = { area = shevrmorzgh_area }
		
		trigger = {
			treasury = 100
			shevrmorzgh_area = {
				type = all
				country_or_non_sovereign_subject_holds = ROOT
			}
			num_of_owned_provinces_with = {
				value = 2
				OR = {
					has_building = fort_15th
					has_building = fort_16th
					has_building = fort_17th
					has_building = fort_18th
				}
				area = shevrmorzgh_area
			}
		}
		
		effect = {
			add_prestige = 10
			add_treasury = -100
			shevrmorzgh_area = {
				add_permanent_province_modifier = {
					name = ogre_border_forts
					duration = -1
				}
			}
		}
	}
	
	maghargma_break_the_spine = {
		icon = mission_impaled_soldies
		required_missions = { }
		position = 3
		
		provinces_to_highlight = { province_id = 5043 }
		
		trigger = {
			NOT = { exists = J38 }
			owns_core_province = 5043
		}
		
		effect = {
			add_prestige = 10
			5043 = { 
				add_base_tax = 1
				add_base_production = 1
				add_base_manpower = 1
			}
		}
	}
	
	maghargma_train_new_warriors = {
		icon = mission_build_up_to_force_limit
		required_missions = { maghargma_break_the_spine }
		position = 4
		
		provinces_to_highlight = { province_id = 5043 }
		
		trigger = {
			5043 = { has_building = barracks }
		}
		
		effect = {
			add_country_modifier = {
				name = new_warriors
				duration = 5475
			}
		}
	}
	
	maghargma_subjugate_warlords = {
		icon = mission_conquer_50_development
		required_missions = { }
		position = 5
		
		provinces_to_highlight = { 
			OR = {
				province_id = 5039
				province_id = 5035
				province_id = 5322
				}
			}
		
		trigger = {
			NOT = { exists = J35 }
			owns_core_province = 5039
			NOT = { exists = J36 }
			owns_core_province = 5035
			NOT = { exists = J37 }
			owns_core_province = 5322
		}
		
		effect = {
			5037 = { add_base_tax = 3 }
		}
	}
	
	maghargma_clan_reform = {
		icon = mission_order_in_the_domain
		required_missions = { maghargma_ogrelord }
		position = 7
		
		trigger = {
			num_of_owned_provinces_with = {
				value = 7
				development = 15
				region = ogre_mountains_region
			}
		}
		
		effect = {
			5037 = {
				add_institution_embracement = {
					which = feudalism
					value = 10
				}
			}
			country_event = {
				id = ogre.5
			}
		}
	}
	
	maghargma_new_kelaktar = {
		icon = mission_control_the_desh
		required_missions = { maghargma_conquer_the_horsemen }
		position = 10
		
		provinces_to_highlight = { region = west_forbidden_plains_region }
		
		trigger = {
			num_of_owned_provinces_with = {
				value = 5
				region = west_forbidden_plains_region
				development = 20
				OR = {
					has_building = fort_15th
					has_building = fort_16th
					has_building = fort_17th
					has_building = fort_18th
				}
			}
		}
		
		effect = {
			every_owned_province = {
				limit = {
					region = west_forbidden_plains_region
					OR = {
						has_building = fort_15th
						has_building = fort_16th
						has_building = fort_17th
						has_building = fort_18th
					}
					development = 20
				}
				change_culture = fathide_ogre
				change_religion = feast_of_the_gods
				add_permanent_province_modifier = {
					name = plains_kelaktar
					duration = -1
				}
			}
		}
	}

	maghargma_ogre_steppe = {
		icon = mission_conquer_orissa_mug
		required_missions = { maghargma_new_kelaktar }
		position = 11
		
		provinces_to_highlight = { region = west_forbidden_plains_region }
		
		trigger = {
			development_in_provinces = {
				value = 200
				region = west_forbidden_plains_region
			}
		}
		
		effect = {
			every_owned_province = {
				limit = {
					has_province_modifier = plains_kelaktar
				}
				area = {
					add_permanent_province_modifier = {
						name = the_ogre_steppes
							duration = -1
						}
				}			
			}
		}
	}
	
	maghargma_slave_market = {
		icon = mission_viceroyalty_of_the_deccan
		required_missions = { maghargma_ogre_steppe }
		position = 12
		
		trigger = {
			num_of_owned_provinces_with = {
				value = 4
				has_province_modifier = plains_kelaktar
				development = 30
				OR = {
					has_building = fort_15th
					has_building = fort_16th
					has_building = fort_17th
					has_building = fort_18th
				}
			}
		}
		
		effect = {
			every_province = {
				limit = {
					region = west_forbidden_plains_region
					OR = {
						has_building = fort_15th
						has_building = fort_16th
						has_building = fort_17th
						has_building = fort_18th
					}
					has_province_modifier = plains_kelaktar
					development = 30
				}
				add_permanent_province_modifier = {
					name = grand_slave_market
					duration = -1
				}
			}
		}
	}
	
	maghargma_the_gift = {
		icon = mission_demand_garjat_fealty
		required_missions = { maghargma_slave_market }
		position = 13
		
		provinces_to_highlight = { region = serpent_gift_region }
		
		trigger = {
			num_of_owned_provinces_with = {
				value = 5
				region = serpent_gift_region
			}
		}
		
		effect = {
			serpent_gift_region = {
				limit = {
					NOT = { is_core = ROOT }
					NOT = { owned_by = ROOT }
				}
				add_permanent_claim = ROOT
			}
		}
	}
}

maghargma_three = {
	slot = 3
	generic = no
	ai = yes
	potential = {
		tag = I90
	}
	has_country_shield = yes
	
	maghargma_the_river = {
		icon = levee_the_arno
		required_missions = { }
		position = 1
		
		provinces_to_highlight = { province_id = 5035 }
		
		trigger = {
			NOT = { exists = J36 }
			owns_core_province = 5035
		}
		
		effect = {
			add_prestige = 10
			5035 = { 
				add_base_tax = 1
				add_base_production = 1
				add_base_manpower = 1
			}
		}
	}
	
	maghargma_riverstone = {
		icon = mission_growth_of_ahmedabad
		required_missions = { maghargma_the_river }
		position = 2
		
		provinces_to_highlight = { province_id = 5035 }
		
		trigger = {
			5035 = { development = 15 }
		}
		
		effect = {
			5035 = {
				add_permanent_province_modifier = {
					name = riverstone
					duration = -1
				}
			}
		}
	}
	
	maghargma_taking_the_chains = {
		icon = mission_develop_cordoba
		required_missions = { }
		position = 3
		
		provinces_to_highlight = { province_id = 5028 }
		
		trigger = {
			NOT = { exists = J39 }
			owns_core_province = 5028
		}
		
		effect = {
			add_prestige = 10
			5028 = { 
				add_base_tax = 1
				add_base_production = 1
				add_base_manpower = 1
			}
		}
	}
	
	maghargma_empower_slavers = {
		icon = mission_expel_the_moriscos
		required_missions = { maghargma_taking_the_chains }
		position = 4
		
		provinces_to_highlight = { province_id = 5028 }
		
		trigger = {
			5028 = { has_building = marketplace }
		}
		
		effect = {
			add_country_modifier = {
				name = empowered_slavers
				duration = -1
				}
		}
	}
	
	maghargma_integrating_the_north = {
		icon = mission_secure_khandesh
		required_missions = { }
		position = 5
		
		provinces_to_highlight = { 
			OR = {
				province_id = 5043
				province_id = 5028
				province_id = 5026
				}
			}
		
		trigger = {
			NOT = { exists = J38 }
			owns_core_province = 5043
			NOT = { exists = J39 }
			owns_core_province = 5028
			NOT = { exists = J40 }
			owns_core_province = 5026
		}
		
		effect = {
			5037 = { add_base_production = 3 }
		}
	}
	
	maghargma_ogrelord = {
	 icon = mission_restore_faith_in_the_throne
	 required_missions = {
		maghargma_subjugate_warlords
		maghargma_integrating_the_north
		maghargma_taming_the_tribes
	}
	position = 6
	
	provinces_to_highlight = { region = ogre_mountains_region }
	
	trigger = {
		ogre_mountains_region = {
				type = all
				owned_by = ROOT
				is_core = ROOT
			}
		}
	
	effect = {
		add_prestige = 25
		add_stability = 2
		5037 = {
			add_institution_embracement = {
				which = feudalism
				value = 35
				}
			}
		}
	}
	
	maghargma_land_reform = {
		icon = mission_a_million_rice_fields
		required_missions = { maghargma_ogrelord }
		position = 7
		
		trigger = {
			total_development = 200
		}
		
		effect = {
			5037 = {
				add_institution_embracement = {
					which = feudalism
					value = 10
				}
			}
			country_event = {
				id = ogre.6
			}
		}
	}
	
	maghargma_supreme_ogrelord = {
		icon = mission_monarch_in_throne_room
		required_missions = {
			maghargma_clan_reform
			maghargma_land_reform
			maghargma_military_reform
		}
		position = 8
		
		trigger = {
			has_institution = feudalism
			years_of_income = 1
		}
		
		effect = {
			add_prestige = 30
			add_years_of_income = -1
			add_government_reform = mengotsa
			set_government_rank = 3
			add_country_modifier = {
				name = united_mengotsa
				duration = 18250
			}
			caubheameas_area = {
				limit = {
					NOT = { is_core = ROOT }
					NOT = { owned_by = ROOT }
				}
				add_permanent_claim = ROOT
			}
			ugheabar_area = {
				limit = {
					NOT = { is_core = ROOT }
					NOT = { owned_by = ROOT }
				}
				add_permanent_claim = ROOT
			}
			naglaibar_area = {
				limit = {
					NOT = { is_core = ROOT }
					NOT = { owned_by = ROOT }
				}
				add_permanent_claim = ROOT
			}
			foirakhian_area = {
				limit = {
					NOT = { is_core = ROOT }
					NOT = { owned_by = ROOT }
				}
				add_permanent_claim = ROOT
			}
		}
	}
	
	maghargma_conquer_the_horsemen = {
		icon = mission_marathi_fiefs
		required_missions = { maghargma_supreme_ogrelord }
		position = 9
		
		provinces_to_highlight = { 
			OR = {
				area = caubheameas_area
				area = ugheabar_area
				area = naglaibar_area
				area = foirakhian_area
			}
		}
		
		trigger = {
			caubheameas_area = {
				type = all
				country_or_non_sovereign_subject_holds = ROOT
			}
			ugheabar_area = {
				type = all
				country_or_non_sovereign_subject_holds = ROOT
			}
			naglaibar_area = {
				type = all
				country_or_non_sovereign_subject_holds = ROOT
			}
			foirakhian_area = {
				type = all
				country_or_non_sovereign_subject_holds = ROOT
			}
		}
		
		effect = {
			west_forbidden_plains_region = {
				limit = {
					NOT = { is_core = ROOT }
					NOT = { owned_by = ROOT }
				}
				add_permanent_claim = ROOT
			}
			add_prestige = 20
		}
	}
	
	maghargma_the_ogre_missive = {
		icon = mission_vedic_education
		required_missions = { maghargma_conquer_the_horsemen }
		position = 12
		
		provinces_to_highlight = { province_group = triunic_crescent }
		
		trigger = {
			army_size = 120
			OR = {
				any_owned_province = { province_group = triunic_crescent }
				any_neighbor_country = { has_country_modifier = lake_federation_member }
				}
			}
		
		effect = {
			country_event = {
				id = ogre.9
				days = 30
				random = 10
			}
			every_country = {
				limit = { has_country_modifier = lake_federation_member }
				country_event = { id = ogre.8 }
			}
		}
	}
	
	maghargma_lakelord = {
		icon = mission_seize_the_bengal_coast
		required_missions = { maghargma_the_ogre_missive }
		position = 13
		
		provinces_to_highlight = {
			OR = {
				region = northern_isles_region
				region = southern_isles_region
			}
		}
		
		trigger = {
			northern_isles_region = {
				type = all
				country_or_subject_holds = ROOT
			}
			southern_isles_region = {
				type = all
				country_or_subject_holds = ROOT
			}
		}
		
		effect = {
			add_prestige = 50
			peenadhi_area = {
				add_trade_modifier = {
					who = I90
					duration = -1
					power = 50
					key = lake_ogre
				}
			}
			prikoyol_area = {
				add_trade_modifier = {
					who = I90
					duration = -1
					power = 50
					key = lake_ogre
				}
			}
			yuurarila_area = {
				add_trade_modifier = {
					who = I90
					duration = -1
					power = 50
					key = lake_ogre
				}
			}
			keshkoi_area = {
				add_trade_modifier = {
					who = I90
					duration = -1
					power = 50
					key = lake_ogre
				}
			}
		}
	}
	
	maghargma_greatest_ogrelord = {
		icon = mission_persianate_empire
		required_missions = {
			maghargma_the_gift
			maghargma_lakelord
		}
		position = 14
		
		provinces_to_highlight = {
			superregion = forbidden_lands_superregion
		}
		
		trigger = {
			forbidden_lands_superregion = {
				type = all
				country_or_subject_holds = ROOT
			}
		}
		
		effect = {
			add_splendor = 1000
			add_country_modifier = {
				name = ogrelord
				duration = -1
			}
		}
	}
}
	
maghargma_four = {
	slot = 4
	generic = no
	ai = yes
	potential = {
		tag = I90
	}
	has_country_shield = yes
	
	maghargma_steel_wall = {
		icon = mission_south_african_bases
		required_missions = { }
		position = 1
		
		provinces_to_highlight = { province_id = 5322 }
		
		trigger = {
			NOT = { exists = J37 }
			owns_core_province = 5322
		}
		
		effect = {
			add_prestige = 10
			5322 = { 
				add_base_tax = 1
				add_base_production = 1
				add_base_manpower = 1
			}
		}
	}
	
	maghargma_ogrish_steel = {
		icon = mission_break_sicily
		required_missions = { maghargma_steel_wall }
		position = 2
		
		provinces_to_highlight = { province_id = 5322 }
		
		trigger = {
			5322 = { has_building = workshop }
		}
		
		effect = {
			5322 = {
				add_permanent_province_modifier = {
					name = ogrish_steel
					duration = -1
				}
			}
		}
	}
	
	maghargma_crashing_the_feast = {
		icon = mission_cope_with_refugees
		required_missions = { }
		position = 3
		
		provinces_to_highlight = { province_id = 5026 }
		
		trigger = {
			NOT = { exists = J37 }
			owns_core_province = 5026
		}
		
		effect = {
			add_prestige = 10
			5026 = { 
				add_base_tax = 1
				add_base_production = 1
				add_base_manpower = 1
			}
		}
	}
	
	maghargma_lands_of_plenty = {
		icon = mission_conquer_malwa_bah
		required_missions = { maghargma_crashing_the_feast }
		position = 4
		
		provinces_to_highlight = { province_id = 5026 }
		
		trigger = {
			OR = {
				5026 = {
					has_building = farm_estate
				}
				5025 = {
					has_building = farm_estate
				}
			}
		}
		
		effect = {
			add_country_modifier = {
				name = land_of_plenty
				duration = -1
			}
		}
	}
	
	maghargma_taming_the_tribes = {
		icon = mission_steppe_warriors
		required_missions = { }
		position = 5
		
		provinces_to_highlight = { 
			OR = {
				province_id = 5019
				province_id = 5020
				province_id = 5021
				province_id = 5022
				province_id = 5005
				province_id = 5024
				}
			}
		
		trigger = {
			owns_core_province = 5019
			owns_core_province = 5020
			owns_core_province = 5021
			owns_core_province = 5022
			owns_core_province = 5005
			owns_core_province = 5024
		}
		
		effect = {
			5037 = { add_base_manpower = 3 }
		}
	}
	
	maghargma_military_reform = {
		icon = mission_crusade_for_varna
		required_missions = { maghargma_ogrelord }
		position = 7
		
		trigger = {
			army_size = 30
		}
		
		effect = {
			5037 = {
				add_institution_embracement = {
					which = feudalism
					value = 10
				}
			}
			country_event = {
				id = ogre.7
			}
		}
	}
}
	
maghargma_five = {
	slot = 5
	generic = no
	ai = yes
	potential = {
		tag = I90
	}
	has_country_shield = yes
	
	maghargma_restoring_the_walls = {
		icon = mission_great_wall
		required_missions = { }
		position = 1
		
		provinces_to_highlight = { province_id = 5037 }
		
		trigger = {
			5037 = {
				has_building = fort_15th
			}
			mil_power = 150
			treasury = 50
		}
		
		effect = {
			add_mil_power = -150
			add_treasury = -50
			add_prestige = 15
			5037 = { 
				add_base_manpower = 2
				add_permanent_province_modifier = {
					name = maghargma_1
					duration = -1
				}
			}
		}
	}
	
	maghargma_royal_feasts = {
		icon = mission_dominate_persian_gulf
		required_missions = { maghargma_restoring_the_walls }
		position = 2
		
		provinces_to_highlight = { province_id = 5037 }
		
		trigger = {
			5037 = {
				has_building = temple
			}
			adm_power = 150
			treasury = 50
		}
		
		effect = {
			add_adm_power = -150
			add_treasury = -50
			add_prestige = 15
			5037 = { 
				add_base_tax = 2
				remove_province_modifier = maghargma_1
				add_permanent_province_modifier = {
					name = maghargma_2
					duration = -1
				}
			}
		}
	}
	
	maghargma_clan_halls = {
		icon = mission_conquer_cuttack
		required_missions = { maghargma_royal_feasts }
		position = 3
		
		provinces_to_highlight = { province_id = 5037 }
		
		trigger = {
			5037 = {
				has_building = marketplace
			}
			dip_power = 150
		}
		
		effect = {
			add_dip_power = -150
			add_prestige = 15
			5037 = { 
				add_base_production = 2
				center_of_trade = 1
			}
		}
	}
	
	maghargma_mining_hills = {
		icon = mission_entrepot_of_india
		required_missions = { maghargma_clan_halls }
		position = 4
		
		provinces_to_highlight = { province_id = 5037 }
		
		trigger = {
			adm_power = 100
			dip_power = 100
			mil_power = 100
		}
		
		effect = {
			add_adm_power = -100
			add_dip_power = -100
			add_mil_power = -100
			country_event = {
				id = ogre.10
			}
		}
	}
	
	maghargma_great_maghargma = {
		icon = mission_fortify_rajputana
		required_missions = { maghargma_mining_hills }
		position = 5
		
		provinces_to_highlight = { province_id = 5037 }
		
		trigger = {
			5037 = { development = 30 }
		}
		
		effect = {
			add_prestige = 25
			5037 = {
				remove_province_modifier = maghargma_2
				add_permanent_province_modifier = {
					name = maghargma_3
					duration = -1
				}
				add_center_of_trade_level = 1
			}
		}
	}
}