g_mountainshark_column_4 = {
	slot = 4
	generic = no
	ai = yes
	potential = {
		tag = H84
	}
	has_country_shield = yes

    g_an_unexpected_journey = {
		icon = mission_fortify_rajputana
		position = 1
		required_missions = {

		}
		trigger = {
			adm_power = 100
		}
		
		effect = {
			add_adm_power = -100
			# custom_tooltip = mountainshark_lowers_your_migration_cooldown_by_25_tooltip
			add_country_modifier = {
				name = cave_goblin_hobbit_journey
				duration = 9125
			}
		}
	}
	g_the_plans_of_tolzheen = {
		icon = mission_fortify_rajputana
		position = 2
		required_missions = {
			g_an_unexpected_journey
		}
		trigger = {
			OR = {
				theologian = 2
				philosopher = 2
			}
			mil_power = 150
		}
		
		effect = {
			add_mil_power = -150
			define_general = {
				shock = 7
				fire = 4
				manuever = 1
				siege = 3
				name = "Jararar Tolzheen"
				trait = war_wizard_personality
			}
		}
	}
	g_the_battle_of_five_armies = {
		icon = mission_fortify_rajputana
		position = 3
		required_missions = {
			g_the_plans_of_tolzheen
		}
		trigger = {
			any_core_province = {
				culture_group = orcish
			}
			any_core_province = {
				culture_group = goblin
			}
			any_core_province = {
				culture_group = dwarven
			}
			any_core_province = {
				culture_group = ogre
			}
			any_core_province = {
				culture_group = kobold
			}
		}
		
		effect = {
			add_prestige = 25
			add_splendor = 100
			add_treasury = 100
		}
	}
	g_the_reforms_of_pether_jakzon = {
		icon = mission_fortify_rajputana
		position = 4
		required_missions = {
			g_the_battle_of_five_armies
		}
		trigger = {
			if = {
				limit = {
					NOT = { has_dlc = "Cradle of Civilization" }
				}
				artist = 3
				prestige = 100
			}
			else = {
				artist = 4
			}
		}
		
		effect = {
			add_country_modifier = {
				name = cave_goblin_peter_jackson
				duration = 9125
			}
			define_general = {
				shock = 3
				fire = 3
				manuever = 8
				siege = 1
				name = "Pether Jakzon"
				trait = glory_seeker_personality
			}
		}
	}
	g_goblins_of_the_mithril_mountains = {
		icon = mission_fortify_rajputana
		position = 5
		required_missions = {
			g_the_reforms_of_pether_jakzon
		}
		trigger = {
			calc_true_if = {
				all_known_country = {
					truce_with = FROM
				}
				amount = 6
			}
		}
		
		effect = {
			add_country_modifier = {
				name = cave_goblin_mountainshark
				duration = -1
			}
			#swap_non_generic_missions = yes
			swap_free_idea_group = yes
			override_country_name = DIVLKLAN # Free Land
		}
	}
}

g_mountainshark_lotr_column_4 = {
	slot = 4
	generic = no
	ai = yes
	potential = {
		tag = H84
	}
	has_country_shield = yes

	g_the_lord_of_the_guns = {
		icon = mission_fortify_rajputana
		position = 6
		required_missions = {
			g_goblins_of_the_mithril_mountains
		}
		trigger = {
			mil_tech = 14
		}
		
		effect = {
			define_advisor = {
				type = court_mage
				name = "Gazdalk the Gray"
				skill = 1
				culture = cave_goblin
				religion = goblinic_shamanism
				discount = yes
			}
		}
	}
	g_the_fellowship_of_the_gun = {
		icon = mission_fortify_rajputana
		position = 7
		required_missions = {
			g_the_lord_of_the_guns
		}
		trigger = {
			has_leader_with = {
				fire = 5
				shock = 0
				manuever = 0
				siege = 0
			}
		}
		
		effect = {
			add_country_modifier = {
				name = cave_goblin_fellowship_of_the_gun
				duration = 7300
			}
		}
	}
	g_gazdalk_the_white = {
		icon = mission_fortify_rajputana
		position = 8
		required_missions = {
			g_the_fellowship_of_the_gun
		}
		trigger = {
			OR = {
				court_mage = 5
				AND = {
					court_mage = 3
					estate_influence = {
						estate = estate_mages
						influence = 40
					}
				}
			}
		}
		
		effect = {
			define_general = {
				shock = 8
				fire = 2
				manuever = 4
				siege = 2
				name = "Gazdalk the White"
				trait = war_wizard_personality
			}
		}
	}
	g_the_twin_towers = { #never forget
		icon = mission_fortify_rajputana
		position = 9
		required_missions = {
			g_gazdalk_the_white
		}
		trigger = {
			#wreck a world trade center
			any_owned_province = {
				province_has_center_of_trade_of_level = 3
			}
		}
		
		effect = {
			random_owned_province = {
				limit = {
					province_has_center_of_trade_of_level = 3
				}
				add_center_of_trade_level = -1
			}
			define_advisor = {
				type = philosopher
				name = "Arzorn the Strider"
				skill = 1
				culture = cave_goblin
				religion = goblinic_shamanism
				discount = yes
			}
			define_advisor = {
				type = statesman
				name = "Legizlick the Frail"
				skill = 1
				culture = cave_goblin
				religion = goblinic_shamanism
				discount = yes
			}
			define_advisor = {
				type = army_organiser
				name = "Gizli Dwarf-Slayer"
				skill = 1
				culture = cave_goblin
				religion = goblinic_shamanism
				discount = yes
			}
		}
	}
	g_the_return_of_the_clanboss = {
		icon = mission_fortify_rajputana
		position = 10
		required_missions = {
			g_the_twin_towers
		}
		trigger = {
			government = monarchy
			OR = {
				AND = {
					philosopher = 5
					statesman = 5
					army_organiser = 5
				}
				if = {
					limit = {
						NOT = {
							has_dlc = "Cradle of Civilization"
						}
					}
					AND = {
						philosopher = 3
						statesman = 3
						army_organiser = 3
					}
				}
			}
		}
		
		effect = {
			add_adm_power = 100
			add_mil_power = 100
			add_dip_power = 100
			define_ruler = {
				name = "Arzorn"
				dynasty = "Mountainshark"
				adm = 6
				dip = 6
				mil = 6
				age = 24
				claim = 100
			}
		}
	}
}

#these trees show up during the allclan civil war. Replaces generic resurce missions and special warband ones
#g_mountainshark_civil_war_region_column_4 = { #involves doing stuff with their spawn area
#	slot = 4
#	generic = no
#	ai = yes
#	potential = {
#		tag = H84
#		has_country_modifier = allclan_split
#	}
#	has_country_shield = yes
#
#    g_establishing_our_clan = {
#		icon = mission_fortify_rajputana
#		position = 1
#		required_missions = {
#
#		}
#		trigger = {
#	
#		}
#		
#		effect = {
#			
#		}
#	}
#}