
country_decisions = {
	jaddari_east_west_leaning_test = {	
		potential = {
			OR = {
				tag = F46
				was_tag = F46
			}
			has_country_flag = jaddari_debug_flag
		}
		
		allow = {
			always = no
		}
	
		effect = {
			custom_tooltip = jaddari_leaning_tt
		}
		ai_will_do = {
			factor = 1
		}
	}
	
	#Building the temples
	jaddari_build_the_sunset_temple = {
		potential = {
			94 = {
				NOT = {
					has_building = jaddari_sunset_temple
					has_construction = jaddari_sunset_temple
				}
			}
			has_country_flag = jaddari_the_sunset_temple_flag
			religion = the_jadd
		}
		
		allow = {
			treasury = 2000
			94 = {
				owned_by = ROOT
				is_core = ROOT
				religion = the_jadd
			}
		}
	
		effect = {
			94 = {
				add_building_construction = {
					building = jaddari_sunset_temple
					speed = 1
					cost = 1
				}
			}
		}
		ai_will_do = {
			factor = 1
		}
	}
	jaddari_build_the_sunrise_temple = {
		potential = {
			has_country_flag = jaddari_the_sunrise_temple_flag
			religion = the_jadd
			4871 = {
				NOT = {
					has_building = jaddari_sunrise_temple
					has_construction = jaddari_sunrise_temple
				}
			}
		}
		
		allow = {
			treasury = 2000
			4871 = {
				owned_by = ROOT
				is_core = ROOT
				religion = the_jadd
			}
		}
	
		effect = {
			4871 = {
				add_building_construction = {
					building = jaddari_sunrise_temple
					speed = 1
					cost = 1
				}
			}
		}
		ai_will_do = {
			factor = 1
		}
	}
	
	#Jaddanzar upgrades
	jaddari_wc_the_suraelic_barracks = { #Found construct great barracks for the legions
		potential = {
			has_country_flag = jaddanzar_founded_flag
			religion = the_jadd
			625 = { NOT = { has_province_modifier = jaddari_the_suraelic_barracks } }
		}
		
		allow = {
			625 = {
				is_capital = yes
				owned_by = ROOT
				is_core = ROOT
				religion = the_jadd
				
				NOT = { has_province_modifier = jaddari_capital_upgrades }
			}
		}
	
		effect = {
			625 = {
				add_permanent_province_modifier = {
					name = jaddari_capital_upgrades
					duration = 3650
				}
				add_province_triggered_modifier = jaddari_the_suraelic_barracks
				tooltip = {
					add_permanent_province_modifier = {
						name = jaddari_the_suraelic_barracks_dummy
						duration = -1
					}
				}
			}
		}
		ai_will_do = {
			factor = 1
		}
	}
	jaddari_wc_the_heralds_wall = { #Build a wall around the city which depicts all the great deeds of surael and his successors
		potential = {
			has_country_flag = jaddanzar_founded_flag
			religion = the_jadd
			625 = { NOT = { has_province_modifier = jaddari_the_heralds_wall } }
		}
		
		allow = {
			625 = {
				is_capital = yes
				owned_by = ROOT
				is_core = ROOT
				religion = the_jadd
				
				NOT = { has_province_modifier = jaddari_capital_upgrades }
			}
		}
	
		effect = {
			625 = {
				add_permanent_province_modifier = {
					name = jaddari_capital_upgrades
					duration = 3650
				}
				add_province_triggered_modifier = jaddari_the_heralds_wall
				tooltip = {
					add_permanent_province_modifier = {
						name = jaddari_the_heralds_wall_dummy
						duration = -1
					}
				}
			}
		}
		ai_will_do = {
			factor = 1
		}
	}
	jaddari_wc_the_jaddanzar_academy = { #Build an officer academy to educate the cream of the officer corps
		potential = {
			has_country_flag = jaddanzar_founded_flag
			religion = the_jadd
			625 = { NOT = { has_province_modifier = jaddari_the_jaddanzar_academy } }
		}
		
		allow = {
			625 = {
				is_capital = yes
				owned_by = ROOT
				is_core = ROOT
				religion = the_jadd
				
				NOT = { has_province_modifier = jaddari_capital_upgrades }
			}
		}
	
		effect = {
			625 = {
				add_permanent_province_modifier = {
					name = jaddari_capital_upgrades
					duration = 3650
				}
				add_province_triggered_modifier = jaddari_the_jaddanzar_academy
				tooltip = {
					add_permanent_province_modifier = {
						name = jaddari_the_jaddanzar_academy_dummy
						duration = -1
					}
				}
			}
		}
		ai_will_do = {
			factor = 1
		}
	}
	
	#Aizt Ralare upgrades
	jaddari_ec_the_school_of_radiant_wisdom = { #Found centre of learning and information storage
		potential = {
			has_country_flag = aizt_ralare_founded_flag
			religion = the_jadd
			4500 = { NOT = { has_province_modifier = jaddari_the_school_of_radiant_wisdom } }
		}
		
		allow = {
			4500 = {
				is_capital = yes
				owned_by = ROOT
				is_core = ROOT
				religion = the_jadd
				
				NOT = { has_province_modifier = jaddari_capital_upgrades }
			}
		}
	
		effect = {
			4500 = {
				add_permanent_province_modifier = {
					name = jaddari_capital_upgrades
					duration = 3650
				}
				add_province_triggered_modifier = jaddari_the_school_of_radiant_wisdom
				tooltip = {
					add_permanent_province_modifier = {
						name = jaddari_the_school_of_radiant_wisdom_dummy
						duration = -1
					}
				}
			}
		}
		ai_will_do = {
			factor = 1
		}
	}
	jaddari_ec_the_quarter_of_the_suns = { #Found a diplomatic district where all races and cultures meet
		potential = {
			has_country_flag = aizt_ralare_founded_flag
			religion = the_jadd
			4500 = { NOT = { has_province_modifier = jaddari_the_quarter_of_the_suns } }
		}
		
		allow = {
			4500 = {
				is_capital = yes
				owned_by = ROOT
				is_core = ROOT
				religion = the_jadd
				
				NOT = { has_province_modifier = jaddari_capital_upgrades }
			}
		}
	
		effect = {
			4500 = {
				add_permanent_province_modifier = {
					name = jaddari_capital_upgrades
					duration = 3650
				}
				add_province_triggered_modifier = jaddari_the_quarter_of_the_suns
				tooltip = {
					add_permanent_province_modifier = {
						name = jaddari_the_quarter_of_the_suns_dummy
						duration = -1
					}
				}
			}
		}
		ai_will_do = {
			factor = 1
		}
	}
	jaddari_ec_the_golden_ambon = { #Build a great seat from which the Divine-Herald can make proclamations
		potential = {
			has_country_flag = aizt_ralare_founded_flag
			religion = the_jadd
			4500 = { NOT = { has_province_modifier = jaddari_the_golden_ambon } }
		}
		
		allow = {
			4500 = {
				is_capital = yes
				owned_by = ROOT
				is_core = ROOT
				religion = the_jadd
				
				NOT = { has_province_modifier = jaddari_capital_upgrades }
			}
		}
	
		effect = {
			4500 = {
				add_permanent_province_modifier = {
					name = jaddari_capital_upgrades
					duration = 3650
				}
				add_province_triggered_modifier = jaddari_the_golden_ambon
				tooltip = {
					add_permanent_province_modifier = {
						name = jaddari_the_golden_ambon_dummy
						duration = -1
					}
				}
			}
		}
		ai_will_do = {
			factor = 1
		}
	}
	
	jaddari_host_a_divine_symposium = {
		potential = {
			mission_completed = jaddari_the_divine_symposium
			NOT = { has_country_flag = hosting_divine_symposium }
		}
		
		allow = {
			4500 = {
				is_capital = yes
				owned_by = ROOT
				is_core = ROOT
				religion = the_jadd
				has_province_modifier = jaddari_the_school_of_radiant_wisdom
				has_province_modifier = jaddari_the_quarter_of_the_suns
				has_province_modifier = jaddari_the_golden_ambon
			}
			
			custom_trigger_tooltip = {
				tooltip = jaddari_host_a_divine_symposium_tt
				NOT = {
					has_country_modifier = jaddari_symposium_imperial_zeal
					has_country_modifier = jaddari_symposium_imperial_fervor
					has_country_modifier = jaddari_symposium_cultural_representation
					has_country_modifier = jaddari_symposium_standing_united
					has_country_modifier = jaddari_symposium_local_administration
					has_country_modifier = jaddari_symposium_rigid_society
					has_country_modifier = jaddari_symposium_religious_schooling
				}
			}
			
			dip_power = 50
		}
	
		effect = {
			add_dip_power = -50
			
			country_event = {
				id = jaddari_missions.16
				days = 1
			}
			
			set_country_flag = hosting_divine_symposium
		}
		ai_will_do = {
			factor = 1
		}
	}
	
	#Deioderan Decisions
	jaddari_attempt_to_sway_provinces = {
		potential = {
			F51 = { has_disaster = jaddari_deioderan }
			OR = {
				tag = F99
				tag = F51
			}
		}
		
		allow = {
			dip_power = 50
			if = {
				limit = { tag = F51 }
				F99 = {
					any_owned_province = {
						controlled_by = ROOT
						NOT = { has_province_modifier = jaddari_failed_to_sway_province }
						any_neighbor_province = { owned_by = ROOT }
					}
				}
			}
			if = {
				limit = { tag = F99 }
				F51 = {
					any_owned_province = {
						controlled_by = ROOT
						NOT = { has_province_modifier = jaddari_failed_to_sway_province }
						any_neighbor_province = { owned_by = ROOT }
					}
				}
			}
			custom_trigger_tooltip = {
				tooltip = jaddari_deioderan_sway_menu_open_tt
				NOT = { has_country_flag = jaddari_deioderan_sway_menu_open }
			}
		}
	
		effect = {
			country_event = { id = jaddari_missions.300 }
		}
		ai_will_do = {
			factor = 1
		}
	}
}
