country_decisions = {
	
	#importing orcish slaves
	buy_orcish_slaves_for_colonies = {
		potential = {
			has_global_flag = green_slave_demand
			
			num_of_provinces_owned_or_owned_by_non_sovereign_subjects_with = {
				value = 1
				OR = {
					continent = north_america
					continent = south_america
				}
				is_city = yes
			}
			
			NOT = { has_country_modifier = orcish_slaves_in_colonies }
			NOT = { has_country_modifier = the_abolish_slavery_act }
			
			#cannorian and bulwari origin as they do the slave trade
			OR = {
				technology_group = tech_cannorian
				technology_group = tech_gerudian
				technology_group = tech_elven
				technology_group = tech_east_elven
				technology_group = tech_gnomish
				technology_group = tech_salahadesi
				technology_group = tech_bulwari
				technology_group = tech_gnollish
				technology_group = tech_goblin
				technology_group = tech_dwarven
				#technology_group = halfling
			}
		}
		
		allow = {
			dip_power = 50
			
			NOT = { has_country_modifier = orcish_slaves_in_colonies_cooldown }
		}
		
		effect = {
			add_dip_power = -50
			add_country_modifier = {
				name = orcish_slaves_in_colonies
				duration = -1
			}
			custom_tooltip = tooltip_orcish_slaves_in_colonies
			
			add_country_modifier = {
				name = orcish_slaves_in_colonies_cooldown
				duration = 3650
				hidden = yes
			}
		}
		
		ai_will_do = {
			factor = 1
			modifier = {
				factor = 0
				OR = {
					has_idea_group = humanist_ideas
					tag = Z43		#Aelnar
					tag = H67		#Rezankand
					ruler_has_personality = kind_hearted_personality
					ruler_has_personality = benevolent_personality
					AND = {
						is_subject = yes
						overlord = {
							NOT = { has_country_modifier = orcish_slaves_in_colonies }
						}
					}
				}
			}
		}
		
	}
	
	stop_buying_orcish_slaves = {
		potential = {
			has_country_modifier = orcish_slaves_in_colonies
			NOT = { has_country_modifier = the_abolish_slavery_act }
			NOT = { current_age = age_of_revolutions }
		}
		allow = {
			adm_power = 100
			dip_power = 100
			NOT = { has_country_modifier = orcish_slaves_in_colonies_cooldown }
		}
		effect = {
			add_prestige = -10
			add_adm_power = -100
			add_dip_power = -100
			remove_country_modifier = orcish_slaves_in_colonies
			
			custom_tooltip = tooltip_no_orcish_slaves_in_colonies
			
			add_country_modifier = {
				name = orcish_slaves_in_colonies_cooldown
				duration = 3650
				hidden = yes
			}
		}
		ai_will_do = {
			factor = 1
			modifier = {
				factor = 0
				NOT = {
					has_idea_group = humanist_ideas
					tag = Z43		#Aelnar
					tag = H67		#Rezankand
					ruler_has_personality = kind_hearted_personality
					ruler_has_personality = benevolent_personality
					AND = {
						is_subject = yes
						overlord = {
							NOT = { has_country_modifier = orcish_slaves_in_colonies }
						}
					}
				}
			}
		}
	}
	
	#this exists in vanilla already as an event!
	# liberate_slaves = {
	# 	potential = {
	# 		has_country_modifier = the_abolish_slavery_act
	# 	}
	# 	allow = {
	# 		slaves = 1
	# 		dip_power = 50
	# 		NOT = { overextension_percentage = 0.02 }
	# 	}
	# 	ai_will_do = {
	# 		factor = 1
	# 		modifier = {
	# 			factor = 0
	# 			NOT = { dip_power = 100 }
	# 		}
			
	# 		modifier = {
	# 			factor = 0
	# 			NOT = { slaves = 3 }	#wont do this if it has less than 3 slave provinces
	# 		}
	# 	}
	# 	effect = {
	# 		add_prestige = 10
	# 		#custom_tooltip = abolished_slavery_act_tooltip
	# 		custom_tooltip = liberate_slaves_tooltip
	# 		hidden_effect = {
	# 			every_owned_province = {
	# 				limit = {
	# 					trade_goods = slaves
	# 				}
	# 				change_trade_goods = unknown
	# 				remove_building = tradecompany
	# 				if = {
	# 					limit = { has_province_modifier = slave_entrepot }
	# 					remove_province_modifier = slave_entrepot
	# 				}
	# 			}
	# 		}
	# 	}
	# }
}