namespace = centaur_tournament

#Launch a tournament
country_event = {
	id = centaur_tournament.1
	title = centaur_tournament.1.t
	desc = centaur_tournament.1.d
	picture = TOURNAMENT_eventPicture

	is_triggered_only = yes

	trigger = {
		always = yes
	}
	
	#Start tournament
	option = {
		name = centaur_tournament.1.a
		ai_chance = { factor = 10 }
		if = {
			limit = { ai = no }
			add_mil_power = -75
			add_adm_power = -75
		}
		hidden_effect = { 
			add_country_modifier = {
				name = recent_centaur_tournament
				hidden = yes
				duration = 3650
			}
		}
		country_event = { id = centaur_tournament.2 days = 10 }
	}
	#Go back
	option = {
		name = centaur_tournament.1.b
		ai_chance = { factor = 0 }
	}
}

#Tournament organisation
country_event = {
	id = centaur_tournament.2
	title = centaur_tournament.2.t
	desc = centaur_tournament.2.d
	picture = TOURNAMENT_eventPicture

	is_triggered_only = yes

	trigger = {
		always = yes
	}
	
	#Grandiose tournament
	option = {
		name = centaur_tournament.2.a
		ai_chance = { factor = 1 }
		trigger = { mil = 6 }
		highlight = yes
		if = {
			limit = { ai = no }
			add_years_of_income = -1.25
		}
		hidden_effect = { set_country_flag = grandiose_tournament }
		hidden_effect = { set_country_flag = first_round }
		country_event = { id = centaur_tournament.3 days = 200 }
		custom_tooltip = grandiose_tournament_tooltip
	}
	
	#Big tournament
	option = {
		name = centaur_tournament.2.b
		ai_chance = { factor = 1 }
		if = {
			limit = { ai = no }
			add_years_of_income = -0.65
		}
		hidden_effect = { set_country_flag = big_tournament }
		hidden_effect = { set_country_flag = first_round }
		country_event = { id = centaur_tournament.3 days = 200 }
	}
	#Normal tournament
	option = {
		name = centaur_tournament.2.c
		ai_chance = { factor = 1 }
		if = {
			limit = { ai = no }
			add_years_of_income = -0.3
		}
		hidden_effect = { set_country_flag = normal_tournament }
		hidden_effect = { set_country_flag = first_round }
		country_event = { id = centaur_tournament.3 days = 200 }
	}
}

#Battle
country_event = {
	id = centaur_tournament.3
	title = centaur_tournament.3.t
	desc = centaur_tournament.3.d
	picture = TOURNAMENT_eventPicture

	is_triggered_only = yes
	hidden = yes

	trigger = {
		always = yes
	}
	
	after = {
		country_event = { id = centaur_tournament.100 }
		# random_list = { 
			# 25 = { set_country_flag = centaur_tournament_desc_1 }
			# 25 = { set_country_flag = centaur_tournament_desc_2 }
			# 25 = { set_country_flag = centaur_tournament_desc_3 }
			# 25 = { set_country_flag = centaur_tournament_desc_4 }
		# }
	}
	
	#Victory
	option = {
		name = centaur_tournament.3.a
		ai_chance = {
			factor = 100
			modifier = {
				factor = 1.5
				mil = 3
			}
			modifier = {
				factor = 1.5
				mil = 4
			}
			modifier = {
				factor = 1.5
				mil = 5
			}
			modifier = {
				factor = 1.5
				mil = 6
			}
			modifier = {
				factor = 1.5
				ruler_has_personality = zealot_personality
			}
			modifier = {
				factor = 1.5
				ruler_has_personality = conqueror_personality
			}
			modifier = {
				factor = 1.5
				ruler_has_personality = tactical_genius_personality
			}
			modifier = {
				factor = 1.5
				ruler_has_personality = bold_fighter_personality
			}
			modifier = {
				factor = 1.5
				ruler_has_personality = strict_personality
			}
			modifier = {
				factor = 1.5
				ruler_has_personality = martial_educator_personality
			}
			modifier = {
				factor = 1.5
				ruler_has_personality = inspiring_leader_personality
			}
			modifier = {
				factor = 1.5
				ruler_has_personality = cruel_personality
			}
			modifier = {
				factor = 1.1
				ruler_has_mage_personality = yes
			}
			modifier = {
				factor = 10
				ruler_has_mage_personality = yes
				ruler_has_personality = malevolent_personality
			}
		}
		set_country_flag = win_round
		country_event = { id = centaur_tournament.4 }
	}
	#Defeat
	option = {
		name = centaur_tournament.3.a
		ai_chance = {
			factor = 75
			modifier = {
				factor = 1.5
				mil = 2
				NOT = { mil = 3 }
			}
			modifier = {
				factor = 1.5
				mil = 1
				NOT = { mil = 3 }
			}
			modifier = {
				factor = 2
				ruler_age = 45
			}
			modifier = {
				factor = 1.5
				ruler_has_personality = kind_hearted_personality
			}
			modifier = {
				factor = 1.2
				ruler_has_personality = careful_personality
			}
			modifier = {
				factor = 2
				ruler_has_personality = benevolent_personality
			}
			modifier = {
				factor = 1.5
				ruler_has_personality = scholar_personality
			}
			modifier = {
				factor = 1.2
				ruler_has_personality = navigator_personality
			}
			modifier = {
				factor = 1.5
				ruler_has_personality = drunkard_personality
				ruler_age = 20
				NOT = { ruler_age = 30 }
			}
			modifier = {
				factor = 1.2
				ruler_has_personality = drunkard_personality
			}
			modifier = {
				factor = 1.8
				ruler_has_personality = naive_personality
			}
			modifier = {
				factor = 2
				ruler_has_personality = obsessive_perfectionist_personality
			}
			modifier = {
				factor = 1.2
				ruler_age = 40
			}
			modifier = {
				factor = 1.2
				ruler_age = 50
			}
			modifier = {
				factor = 1.2
				ruler_age = 60
			}
			modifier = {
				factor = 1.2
				ruler_age = 70
			}
			modifier = {
				factor = 1.5
				ruler_age = 80
			}
		}
		set_country_flag = lost_round
		country_event = { id = centaur_tournament.4 }
	}
}


#Round Result
country_event = {
	id = centaur_tournament.4
	title = centaur_tournament.4.t
	desc = {
		trigger = { has_country_flag = centaur_tournament_desc_1 }
		desc = centaur_tournament.4.da
	}
	desc = {
		trigger = { has_country_flag = centaur_tournament_desc_2 }
		desc = centaur_tournament.4.db
	}
	desc = {
		trigger = { has_country_flag = centaur_tournament_desc_3 }
		desc = centaur_tournament.4.dc
	}
	desc = {
		trigger = { has_country_flag = centaur_tournament_desc_4 }
		desc = centaur_tournament.4.dd
	}
	picture = TOURNAMENT_eventPicture

	is_triggered_only = yes

	trigger = {
		always = yes
	}
	
	after = {
		hidden_effect = {
			clr_country_flag = centaur_tournament_desc_1
			clr_country_flag = centaur_tournament_desc_2
			clr_country_flag = centaur_tournament_desc_3
			clr_country_flag = centaur_tournament_desc_4
		}
	}
	
	#Round Victory
	option = {
		name = centaur_tournament.4.a
		ai_chance = { factor = 1 }
		trigger = { has_country_flag = win_round NOT = { has_country_flag = last_round } }
		trigger_switch = {
			on_trigger = has_country_flag
			
			grandiose_tournament = { add_prestige = 5 random_list = { 33 = { add_mil_power = 10 } 33 = { add_adm_power = 10 } 33 = { add_dip_power = 10 } } }
			big_tournament = { add_prestige = 5 }
			normal_tournament = { add_prestige = 2 }
		}
		hidden_effect = { 
			clr_country_flag = win_round
			trigger_switch = {
				on_trigger = has_country_flag
				
				second_round = { clr_country_flag = second_round set_country_flag = last_round }
				first_round = { clr_country_flag = first_round set_country_flag = second_round }
			}
		}
		if = {
			limit = { num_of_generals = 1 }
			hidden_effect = { country_event = { id = centaur_tournament.102 } }
			tooltip = {
				random = {
					chance = 50
					kill_leader = {
						type = random
					}
				}
			}
		}
		country_event = { id = centaur_tournament.3 days = 30 }
	}
	#Round Lost
	option = {
		name = centaur_tournament.4.b
		ai_chance = { factor = 1 }
		trigger = { has_country_flag = lost_round }
		hidden_effect = {
			clr_country_flag = first_round
			clr_country_flag = second_round
			clr_country_flag = last_round
			clr_country_flag = normal_tournament
			clr_country_flag = big_tournament
			clr_country_flag = grandiose_tournament
			clr_country_flag = lost_round
		}
		hidden_effect = { country_event = { id = centaur_tournament.101 } }
		tooltip = {
			random = {
				chance = 50
				kill_ruler = yes
			}
		}
		if = {
			limit = { check_variable = { centaur_zeal = 0 } }
			custom_tooltip = centaur_zeal_minus_5_tooltip
			hidden_effect = { subtract_variable = { centaur_zeal = 5 } }
		}
	}
	#Tournament win
	option = {
		name = centaur_tournament.4.c
		ai_chance = { factor = 1 }
		trigger = { has_country_flag = win_round has_country_flag = last_round }
		trigger_switch = {
			on_trigger = has_country_flag
			
			grandiose_tournament = { add_prestige = 5 random_list = { 33 = { add_mil_power = 10 } 33 = { add_adm_power = 10 } 33 = { add_dip_power = 10 } } }
			big_tournament = { add_prestige = 5 }
			normal_tournament = { add_prestige = 2 }
		}
		hidden_effect = { country_event = { id = centaur_tournament.102 } }
		tooltip = {
			random = {
				chance = 50
				kill_leader = {
					type = random
				}
			}
		}
		country_event = { id = centaur_tournament.5 }
	}
}

#Tournament win
country_event = {
	id = centaur_tournament.5
	title = centaur_tournament.5.t
	desc = centaur_tournament.5.d
	picture = GREAT_MAN_eventPicture

	is_triggered_only = yes

	trigger = {
		always = yes
	}
	
	#Won the tournament
	option = {
		name = centaur_tournament.5.a
		ai_chance = { factor = 10 }
		change_mil = 1
		if = {
			limit = { check_variable = { centaur_zeal = 0 } has_country_flag = normal_tournament }
			custom_tooltip = centaur_zeal_5_tooltip
			hidden_effect = { change_variable = { centaur_zeal = 5 } }
			add_prestige = 15
			if = {
				limit = { NOT = { stability = 3 } }
				random = {
					chance = 33
					add_stability = 1
				}
			}
			else = {
				add_mil_power = 25
				add_dip_power = 25
				add_adm_power = 25
			}
		}
		if = {
			limit = { check_variable = { centaur_zeal = 0 } has_country_flag = big_tournament }
			custom_tooltip = centaur_zeal_7_tooltip
			hidden_effect = { change_variable = { centaur_zeal = 7 } }
			if = {
				limit = { NOT = { stability = 3 } }
				random = {
					chance = 66
					add_stability = 1
				}
			}
			else = {
				add_mil_power = 50
				add_dip_power = 50
				add_adm_power = 50
			}
		}
		if = {
			limit = { check_variable = { centaur_zeal = 0 } has_country_flag = grandiose_tournament }
			custom_tooltip = centaur_zeal_10_tooltip
			hidden_effect = { change_variable = { centaur_zeal = 10 } }
			if = {
				limit = { NOT = { stability = 3 } }
				add_stability = 1
			}
			else = {
				add_mil_power = 100
				add_dip_power = 100
				add_adm_power = 100
			}
		}
		hidden_effect = {
			clr_country_flag = normal_tournament
			clr_country_flag = big_tournament
			clr_country_flag = grandiose_tournament
			clr_country_flag = first_round
			clr_country_flag = second_round
			clr_country_flag = last_round
			clr_country_flag = lost_round
			clr_country_flag = win_round
		}
	}
}

#Description randomization
country_event = {
	id = centaur_tournament.100
	title = centaur_tournament.100.t
	desc = centaur_tournament.100.d
	picture = GREAT_MAN_eventPicture
	
	hidden = yes
	is_triggered_only = yes
	
	option = {
		name = centaur_tournament.100.a
		ai_chance = { factor = 25 }
		
		set_country_flag = centaur_tournament_desc_1
	}
	
	option = {
		name = centaur_tournament.100.b
		ai_chance = { factor = 25 }
		
		set_country_flag = centaur_tournament_desc_2
	}
	
	option = {
		name = centaur_tournament.100.c
		ai_chance = { factor = 25 }
		
		set_country_flag = centaur_tournament_desc_3
	}
	
	option = {
		name = centaur_tournament.100.d
		ai_chance = { factor = 25 }
		
		set_country_flag = centaur_tournament_desc_4
	}
}

#Ruler death chance
country_event = {
	id = centaur_tournament.101
	title = centaur_tournament.101.t
	desc = centaur_tournament.101.d
	picture = GREAT_MAN_eventPicture
	
	hidden = yes
	is_triggered_only = yes
	
	option = {
		name = centaur_tournament.101.a
		ai_chance = { factor = 50 }
		
		kill_ruler = yes
	}
	
	option = {
		name = centaur_tournament.101.a
		ai_chance = { factor = 50 }
	}
}

#Leader death chance
country_event = {
	id = centaur_tournament.102
	title = centaur_tournament.102.t
	desc = centaur_tournament.102.d
	picture = GREAT_MAN_eventPicture
	
	hidden = yes
	is_triggered_only = yes
	
	option = {
		name = centaur_tournament.102.a
		ai_chance = { factor = 50 }
		
		kill_leader = {
			type = random
		}
	}
	
	option = {
		name = centaur_tournament.102.a
		ai_chance = { factor = 50 }
	}
}
