namespace = eborthil

country_event = {
	id = eborthil.1
	title = eborthil.1.t
	desc = eborthil.1.d
	picture = JESUTIS_IN_BRAZIL_eventPicture
	
	is_triggered_only = yes
	
	trigger = {
		always = yes
	}
	
	option = {
		name = eborthil.1.a
		ai_chance = { factor = 50 }
		U06 = {
		    change_religion = ROOT
		}
		add_country_modifier = {
				name = eborthil_conversion_campaign
				duration = 18250 #50 Years
		}
	}
}