namespace = A31_flavour

country_event = { #Unraveling
	id = A31_flavour.1
	title = A31_flavour.1.t
	desc = A31_flavour.1.d
	picture = ANGRY_MOB_eventPicture
	
	is_triggered_only = yes
	fire_only_once = yes

	trigger = {
		#mission

	}
	
	option = { #Stay RC
		name = A31_flavour.1.a
		ai_chance = {
			factor = 25
			modifier = {
				factor = 0
				A45 = { ai = no }
			}
		}
		change_religion = regent_court
		remove_historical_friend = A45
		A45 = { 
			remove_historical_friend = A31
			add_trust = {
				who = A31
				value = -100
				mutual = yes 
			} 
		}
		random_owned_province = {
			change_religion = corinite
			spawn_rebels = {
				type = corinite_rebels
				size = 2
			}
		}
		set_country_flag = A31_regent
	}
	option = { #Go Corinite
		name = A31_flavour.1.b
		ai_chance = {
			factor = 75
			modifier = {
				factor = 10
				A45 = { ai = no }
			}
		}
		change_religion = corinite
		add_stability = -1
		random_owned_province = {
			change_religion = corinite
		}
		52 = {
			spawn_rebels = {
				type = regent_court_rebels
				size = 2
			}
		}
		set_country_flag = A31_corinite
	}
}

country_event = { #Istralore 1
	id = A31_flavour.2
	title = A31_flavour.2.t
	desc = A31_flavour.2.d
	picture = DIPLOMACY_eventPicture
	
	is_triggered_only = yes
	fire_only_once = yes

	trigger = {
		#mission

	}
	
	option = { #money is good
	 	name = A31_flavour.2.a
	}
}

country_event = { #Istralore 2
	id = A31_flavour.3
	title = A31_flavour.3.t
	desc = A31_flavour.3.d
	picture = DIPLOMACY_eventPicture
	
	is_triggered_only = yes
	fire_only_once = yes

	trigger = {
		#mission

	}
	
	option = { #dev is good
			name = A31_flavour.3.a
	}
}

country_event = { #Istralore 3
	id = A31_flavour.4
	title = A31_flavour.4.t
	desc = A31_flavour.4.d
	picture = DIPLOMACY_eventPicture
	
	is_triggered_only = yes
	fire_only_once = yes

	trigger = {
		#mission

	}
	
	option = { #troops is good
			name = A31_flavour.4.a
	}
}

country_event = { #Istralore 4
	id = A31_flavour.5
	title = A31_flavour.5.t
	desc = A31_flavour.5.d
	picture = DIPLOMACY_eventPicture
	
	is_triggered_only = yes
	fire_only_once = yes

	trigger = {
		#mission

	}
	
	option = { #wood is good
			name = A31_flavour.5.a
	}
}

country_event = { #Wex Petition
	id = A31_flavour.6
	title = A31_flavour.6.t
	desc = A31_flavour.6.d
	picture = DEBATE_REPUBLICAN_eventPicture
	
	is_triggered_only = yes
	fire_only_once = yes

	trigger = {
		#mission

	}
	
	option = { #accept petition
		name = A31_flavour.6.a
		add_prestige = -10
		small_increase_of_elven_tolerance_effect = yes
		A31 = { country_event = { id = A31_flavour.7 } }
	}
	option = { #reject petition
		name = A31_flavour.6.b
		add_prestige = 5
		small_decrease_of_elven_tolerance_effect = yes
		A31 = { country_event = { id = A31_flavour.8 } }
	}
}

country_event = { #Wex Accepts
	id = A31_flavour.7
	title = A31_flavour.7.t
	desc = A31_flavour.7.d
	picture = DIPLOMACY_eventPicture
	
	is_triggered_only = yes
	fire_only_once = yes

	trigger = {
		#mission

	}
	
	option = { #good
		name = A31_flavour.7.a
		add_prestige = 15
	}
}

country_event = { #Wex Rejects
	id = A31_flavour.8
	title = A31_flavour.8.t
	desc = A31_flavour.8.d
	picture = ACCUSATION_eventPicture
	
	is_triggered_only = yes
	fire_only_once = yes

	trigger = {
		#mission

	}
	
	option = { #bad
		name = A31_flavour.8.a
		add_prestige = -15
	}
}


country_event = { #Random Perma claim
	id = A31_flavour.9
	title = A31_flavour.9.t
	desc = A31_flavour.9.d
	picture = SHIP_SAILING_eventPicture
	
	is_triggered_only = yes
	fire_only_once = yes

	trigger = {
		#mission

	}
	
	option = { 
		name = A31_flavour.9.a
		random_province = {
			limit = {
				is_city = yes 
				has_port = yes
				continent = asia
				province_has_center_of_trade_of_level = 1
				NOT = { owned_by = A31 }
				NOT = { superregion = forbidden_lands_superregion }
			}
			add_permanent_claim = A31
		}
	}
}


#Tea experiments
country_event = { #Mages 1
	id = A31_flavour.10
	title = A31_flavour.10.t
	desc = A31_flavour.10.d
	picture = INVENTION_eventPicture
	
	is_triggered_only = yes
	fire_only_once = yes

	trigger = {
		#mission

	}
	
	option = { #damestear
		name = A31_flavour.10.a
		#fire event A31_flavour.17
		hidden_effect = {
			country_event = {
				id = A31_flavour.17
				days = 180
				random = 30
			}
		}
	}
	option = { #magic
		name = A31_flavour.10.b
		#fire event A31_flavour.11
		hidden_effect = {
			country_event = {
				id = A31_flavour.11
				days = 180
				random = 30
			}
		}	
	}
}

country_event = { #Mages 2
	id = A31_flavour.11
	title = A31_flavour.11.t
	desc = A31_flavour.11.d
	picture = INVENTION_eventPicture
	
	is_triggered_only = yes
	fire_only_once = yes

	trigger = {
		#mission

	}
	
	option = { #imbue
		name = A31_flavour.11.a
		#fire event A31_flavour.12
		hidden_effect = {
			country_event = {
				id = A31_flavour.12
				days = 180
				random = 30
			}
		}
	}
	option = { #enhance
		name = A31_flavour.11.b	
		#fire event A31_flavour.16
		hidden_effect = {
			country_event = {
				id = A31_flavour.16
				days = 180
				random = 30
			}
		}
	}
}

country_event = { #Magical tea
	id = A31_flavour.12
	title = A31_flavour.12.t
	desc = A31_flavour.12.d
	picture = INVENTION_eventPicture
	
	is_triggered_only = yes
	fire_only_once = yes

	trigger = {
		#mission

	}
	
	option = { #the end
		name = A31_flavour.12.a
		add_country_modifier = {
				name = "A31_magical_tea"
				duration = -1
		}
	}
}

country_event = { #Artificers 1
	id = A31_flavour.13
	title = A31_flavour.13.t
	desc = A31_flavour.13.d
	picture = INVENTION_eventPicture
	
	is_triggered_only = yes
	fire_only_once = yes

	trigger = {
		#mission

	}
	
	option = { #damestear
		name = A31_flavour.13.a
		#fire event A31_flavour.17
		hidden_effect = {
			country_event = {
				id = A31_flavour.17
				days = 180
				random = 30
			}
		}
	}
	option = { #relics
		name = A31_flavour.13.b
		#fire event A31_flavour.14
		hidden_effect = {
			country_event = {
				id = A31_flavour.14
				days = 180
				random = 30
			}
		}
	}
}

country_event = { #Artificers 2
	id = A31_flavour.14
	title = A31_flavour.14.t
	desc = A31_flavour.14.d
	picture = INVENTION_eventPicture
	
	is_triggered_only = yes
	fire_only_once = yes

	trigger = {
		#mission

	}
	
	option = { #similarities
		name = A31_flavour.14.a
		#fire event A31_flavour.15
		hidden_effect = {
			country_event = {
				id = A31_flavour.15
				days = 180
				random = 30
			}
		}
	}
	option = { #enhance
		name = A31_flavour.14.b
		#fire event A31_flavour.16
		hidden_effect = {
			country_event = {
				id = A31_flavour.16
				days = 180
				random = 30
			}
		}
	}
}

country_event = { #Commoner's tea
	id = A31_flavour.15
	title = A31_flavour.15.t
	desc = A31_flavour.15.d
	picture = INVENTION_eventPicture
	
	is_triggered_only = yes
	fire_only_once = yes

	trigger = {
		#mission

	}
	
	option = {
		name = A31_flavour.15.a
		add_prestige = -10
			every_province = {
				limit = { 
					country_or_subject_holds = ROOT
					trade_goods = tea
				}
				add_base_production = 5
			}
		
	}
}

country_event = { #Refined tea
	id = A31_flavour.16
	title = A31_flavour.16.t
	desc = A31_flavour.16.d
	picture = INVENTION_eventPicture
	
	is_triggered_only = yes
	fire_only_once = yes

	trigger = {
		#mission

	}
	
	option = {
		name = A31_flavour.16.a
		every_province = {
				limit = { 
					country_or_subject_holds = ROOT
					trade_goods = tea
				}
				add_permanent_province_modifier = {
					name = A31_refined_tea
					duration = -1
				}
			}
	}
}

country_event = { #damestear
	id = A31_flavour.17
	title = A31_flavour.17.t
	desc = A31_flavour.17.d
	picture = INVENTION_eventPicture
	
	is_triggered_only = yes
	fire_only_once = yes

	trigger = {
		#mission

	}
	
	option = { #always success initially
		name = A31_flavour.17.a
		hidden_effect = {
			country_event = {
				id = A31_flavour.19
				days = 180
				random = 30
			}
		}
	}
}

country_event = { #bad end
	id = A31_flavour.18
	title = A31_flavour.18.t
	desc = A31_flavour.18.d
	picture = INVENTION_eventPicture
	
	is_triggered_only = yes
	fire_only_once = yes

	trigger = {
		#mission

	}
	
	option = {
		name = A31_flavour.18.a
		add_prestige = -35
		remove_country_modifier = A31_rial_thae
		every_province = {
				limit = { 
					country_or_subject_holds = ROOT
					trade_goods = tea
				}
				add_base_production = -5
		}
	}
}

country_event = { #good end
	id = A31_flavour.19
	title = A31_flavour.19.t
	desc = A31_flavour.19.d
	picture = INVENTION_eventPicture
	
	is_triggered_only = yes
	fire_only_once = yes

	trigger = {
		#mission

	}
	
	immediate = {
		hidden_effect = {
			random_list = {
				60 = {
					country_event = {
						id = A31_flavour.18
						days = 180
					}
				}
				40 = { add_prestige = 1 }
			}
		}
	}
	
	option = {
		name = A31_flavour.19.a
		every_province = {
				limit = { 
					country_or_subject_holds = ROOT
					trade_goods = tea
				}
				add_base_production = 3
		}
		add_country_modifier = {
				name = "A31_rial_thae"
				duration = -1
		}
	}
}

country_event = {
	id = A31_flavour.20
	title = A31_flavour.20.t
	desc = A31_flavour.20.d
	picture = NOBLE_ESTATE_eventPicture
	
	is_triggered_only = yes
	fire_only_once = yes

	trigger = {
		#mission

	}
	
	option = { 
	 	name = A31_flavour.20.a
	}
}

country_event = { #ibevar
	id = A31_flavour.21
	title = A31_flavour.21.t
	desc = A31_flavour.21.d
	picture = KINGS_CHOICE_eventPicture
	
	is_triggered_only = yes
	fire_only_once = yes

	trigger = {
		#mission
	}
	
	option = { 
	 	name = A31_flavour.21.a
	}
}

country_event = { #introduction
	id = A31_flavour.22
	title = A31_flavour.22.t
	desc = A31_flavour.22.d
	picture = GOOD_WITH_MONARCH_eventPicture
	
	fire_only_once = yes
	
	trigger = {
		tag = A31
	}
	
	mean_time_to_happen = {
		days = 14
	}
	
	option = {
		name = A31_flavour.22.a
	}

}