namespace = flavor_arverynn

#Arverynn intro event, also a general setup for Sarda
country_event = {
	id = flavor_arverynn.0
	title = flavor_arverynn.0.t
	desc = flavor_arverynn.0.d
	picture = BANKRUPTCY_eventPicture
	
	is_triggered_only = yes
	fire_only_once = yes
	
	trigger = {
		tag = G35
	}
	
	option = {
		name = flavor_arverynn.0.a
		
		add_opinion = {
			who = G36
			modifier = opinion_invasion
		}
		
		G37 = {
			add_opinion = {
				who = G36
				modifier = opinion_invasion
			}
		}
		
		add_manpower = -9
		add_years_of_income = -8
		G36 = {
			add_years_of_income = 6
			add_manpower = -6
		}
		G37 = {
			add_manpower = -9
		}
		G86 = {
			add_manpower = -4
		}
		
		ai_chance = {
			factor = 1
		}
	}
}