
namespace = ibevar

#Silent Repose question
country_event = {
	id = ibevar.1
	title = ibevar.1.t
	desc = ibevar.1.d
	picture = ROYAL_COUPLE_FUTURE_eventPicture
	
	is_triggered_only = yes
	
	trigger = {
		always = yes
	}
	
	option = {		
		name = ibevar.1.a
		ai_chance = { factor = 50 }
		add_dip_power = -200
		add_adm_power = -100
		350 = { cede_province = ROOT }
	}
	
	option = {		
		name = ibevar.1.b
		ai_chance = { factor = 50 }
		350 = { add_claim = ROOT }
		random = {
			chance = 15
			add_stability = -1
		}
	}
}

#Ibevar Disaster Start Event
country_event = {
	id = ibevar.2
	title = ibevar.2.t
	desc = ibevar.2.d
	picture = ROYAL_COUPLE_FUTURE_eventPicture
	
	is_triggered_only = yes
	
	trigger = {
		always = yes
	}
	
	
	option = {		
		name = ibevar.2.a
		ai_chance = { factor = 50 }
		custom_tooltip = ibevar_reformation_tooltip
	}
}

#Disaster Reformatin menu
country_event = {
	id = ibevar.3
	title = ibevar.3.t
	desc = ibevar.3.d
	picture = ROYAL_COUPLE_FUTURE_eventPicture
	
	is_triggered_only = yes
	
	trigger = {
		always = yes
	}
	
	immediate = { 
		hidden_effect = {
			set_country_flag = ibevar_reformation_menu_debug_flag
			ibevar_reformation_menu = yes
		}
	}
	
	after = {
		hidden_effect = { 
			every_owned_province = {
				limit = { has_province_flag = ibevar_@ROOT }
				clr_province_flag = ibevar_@ROOT
			}
		}
	}
	
	option = {		
		name = ibevar.3.a
		ai_chance = { factor = 50 }
		trigger = { has_saved_event_target = ibevar1 }
		goto = ibevar1
		event_target:ibevar1 = { province_event = { id = ibevar.4 } custom_tooltip = ibevar_province_reformation_tooltip }
	}
	
	option = {		
		name = ibevar.3.b
		ai_chance = { factor = 50 }
		trigger = { has_saved_event_target = ibevar2 }
		goto = ibevar2
		event_target:ibevar2 = { province_event = { id = ibevar.4 } custom_tooltip = ibevar_province_reformation_tooltip }
	}
	
	option = {		
		name = ibevar.3.c
		ai_chance = { factor = 50 }
		trigger = { has_saved_event_target = ibevar3 }
		goto = ibevar3
		event_target:ibevar3 = { province_event = { id = ibevar.4 } custom_tooltip = ibevar_province_reformation_tooltip }
	}
	
	option = {		
		name = ibevar.3.e
		ai_chance = { factor = 50 }
		trigger = { has_saved_event_target = ibevar4 }
		goto = ibevar4
		event_target:ibevar4 = { province_event = { id = ibevar.4 } custom_tooltip = ibevar_province_reformation_tooltip }
	}
	
	option = {		
		name = ibevar.3.f
		ai_chance = { factor = 50 }
		trigger = { has_saved_event_target = ibevar5 }
		goto = ibevar5
		event_target:ibevar5 = { province_event = { id = ibevar.4 } custom_tooltip = ibevar_province_reformation_tooltip }
	}
	
	option = {		
		name = ibevar.3.g
		ai_chance = { factor = 50 }
		trigger = { has_saved_event_target = ibevar6 }
		goto = ibevar6
		event_target:ibevar6 = { province_event = { id = ibevar.4 } custom_tooltip = ibevar_province_reformation_tooltip }
	}
	
	option = {		
		name = ibevar.3.h
		ai_chance = { factor = 50 }
		trigger = { has_saved_event_target = ibevar7 }
		goto = ibevar7
		event_target:ibevar7 = { province_event = { id = ibevar.4 } custom_tooltip = ibevar_province_reformation_tooltip }
	}
	
	option = {		
		name = ibevar.3.i
		ai_chance = { factor = 50 }
		trigger = { has_saved_event_target = ibevar8 }
		goto = ibevar8
		event_target:ibevar8 = { province_event = { id = ibevar.4 } custom_tooltip = ibevar_province_reformation_tooltip }
	}
	
	option = {		
		name = ibevar.3.j
		ai_chance = { factor = 50 }
		trigger = { has_saved_event_target = ibevar9 }
		goto = ibevar9
		event_target:ibevar9 = { province_event = { id = ibevar.4 } custom_tooltip = ibevar_province_reformation_tooltip }
	}
	
	option = {		#Go Back
		name = ibevar.3.k
		ai_chance = { factor = 0 }
		hidden_effect = { clr_country_flag = ibevar_reformation_menu_debug_flag }
	}
}

#Province event for reformation disaster
province_event = {
	id = ibevar.4
	title = ibevar.4.t
	desc = ibevar.4.d
	picture = ROYAL_COUPLE_FUTURE_eventPicture
	
	is_triggered_only = yes
	
	trigger = {
		always = yes
	}
	
	option = {		
		name = ibevar.4.a
		ai_chance = { factor = 50 }
		trigger = { NOT = { has_province_flag = ibe_option_1 } }
		hidden_effect = { ibevar_province_flag = yes }
		hidden_effect = { set_province_flag = ibe_option_1 }
		province_event = { id = ibevar.100 }
		owner = {
			tooltip = {
				random_list = {
					50 = { add_treasury = -15 }
					35 = { add_treasury = -30 }
					15 = { add_treasury = -50 }
				}
			}
			hidden_effect = {
				country_event = { id = ibevar.104 }
			}
		}
	}
	
	option = {		
		name = ibevar.4.b
		ai_chance = { factor = 50 }
		trigger = { NOT = { has_province_flag = ibe_option_2 } }
		hidden_effect = { ibevar_province_flag = yes }
		hidden_effect = { set_province_flag = ibe_option_2 }
		province_event = { id = ibevar.100 }
		owner = {
			tooltip = {
				random_list = {
					33 = { add_adm_power = -15 }
					33 = { add_dip_power = -15 }
					33 = { add_mil_power = -15 }
				}
			}
			hidden_effect = {
				country_event = { id = ibevar.105 }
			}
		}
	}
	
	option = {		
		name = ibevar.4.c
		ai_chance = { factor = 50 }
		trigger = { NOT = { has_province_flag = ibe_option_3 }  owner = { manpower = 1.5 } }
		hidden_effect = { ibevar_province_flag = yes }
		hidden_effect = { set_province_flag = ibe_option_3 }
		province_event = { id = ibevar.100 }
		owner = {
			tooltip = {
				random_list = {
					50 = { add_manpower = -0.5 }
					35 = { add_manpower = -1 }
					15 = { add_manpower = -1.5 }
				}
			}
			hidden_effect = {
				country_event = { id = ibevar.106 }
			}
		}
	}
	
	option = {		
		name = ibevar.4.e
		ai_chance = { factor = 50 }
		trigger = { custom_trigger_tooltip = { tooltip = ibevar4_option_tooltip OR = { has_province_flag = ibe_1 has_province_flag = ibe_2 has_province_flag = ibe_3 } } }
		highlight = yes
		owner = { add_country_modifier = { name = ibevar_reformation_work duration = -1 } }
		if = {
			limit = { ai = yes }
			province_event = { id = ibevar.103 days = 30 random = 90 } #Faster for AI cuz AI dumb dumb
		}
		else = { province_event = { id = ibevar.103 days = 60 random = 120 } }
		hidden_effect = { owner = { clr_country_flag = ibevar_reformation_menu_debug_flag } set_province_flag = ibevar_reformation_work_flag }
		custom_tooltip = ibevar4_option_tooltip2
	}
	
	option = {	#Go Back
		name = ibevar.4.f
		ai_chance = { factor = 0 }
		trigger = { NOT = { OR = { has_province_flag = ibe_1 has_province_flag = ibe_2 has_province_flag = ibe_3 } } }
		owner = { country_event = { id = ibevar.3 } }
	}
}

province_event = {
	id = ibevar.5
	title = ibevar.5.t
	desc = ibevar.5.d
	picture = ROYAL_COUPLE_FUTURE_eventPicture
	
	is_triggered_only = yes
	
	trigger = {
		always = yes
	}
	
	immediate = {
		hidden_effect = {
			random_list = {
				10 = { set_province_flag = ibe_result_1 }
				10 = { set_province_flag = ibe_result_2 }
				10 = { set_province_flag = ibe_result_3 }
				10 = { set_province_flag = ibe_result_4 }
				10 = { set_province_flag = ibe_result_5 }
				10 = { set_province_flag = ibe_result_6 }
				10 = { set_province_flag = ibe_result_7 }
				10 = { set_province_flag = ibe_result_8 }
				10 = { set_province_flag = ibe_result_9 }
				10 = { set_province_flag = ibe_result_10 }
			}
			remove_province_triggered_modifier = random_ibevar_disaster_result
		}
	}
	
	after = {
		hidden_effect = {
			clr_province_flag = ibe_result_1
			clr_province_flag = ibe_result_2
			clr_province_flag = ibe_result_3
			clr_province_flag = ibe_result_4
			clr_province_flag = ibe_result_5
			clr_province_flag = ibe_result_6
			clr_province_flag = ibe_result_7
			clr_province_flag = ibe_result_8
			clr_province_flag = ibe_result_9
			clr_province_flag = ibe_result_10
			clr_province_flag = ibevar_reformation_work_flag
		}
	}
	
	option = {
		name = ibevar.5.a
		ai_chance = { factor = 50 }
		trigger_switch = {
			on_trigger = has_province_flag
			ibe_result_1 = { owner = { add_dip_power = -5 } random = { chance = 15 spawn_rebels = {  type = elven_forebears_rebels size = 1 leader = rebel_preacher } } }
			ibe_result_2 = { owner = { add_prestige = -2.5 } random = { chance = 15 spawn_rebels = {  type = elven_forebears_rebels size = 1 leader = rebel_preacher } } }
			ibe_result_3 = { owner = { add_legitimacy = -2.5 } random = { chance = 15 spawn_rebels = {  type = elven_forebears_rebels size = 1 leader = rebel_preacher } } }
			ibe_result_4 = { spawn_rebels = {  type = elven_forebears_rebels size = 2 leader = rebel_preacher } }
			ibe_result_5 = { owner = { add_mil_power = -5 } random = { chance = 15 spawn_rebels = {  type = elven_forebears_rebels size = 1 leader = rebel_preacher } } }
			ibe_result_6 = { owner = { add_manpower = -1 } random = { chance = 15 spawn_rebels = {  type = elven_forebears_rebels size = 1 leader = rebel_preacher } } }
			ibe_result_7 = { owner = { random = { chance = 50 reduce_stability_or_adm_power = yes } } random = { chance = 15 spawn_rebels = {  type = elven_forebears_rebels size = 1 leader = rebel_preacher } } }
			ibe_result_8 = { owner = { change_government_reform_progress = -10 } random = { chance = 15 spawn_rebels = {  type = elven_forebears_rebels size = 1 leader = rebel_preacher } } }
			ibe_result_9 = { owner = { add_adm_power = -5 } random = { chance = 15 spawn_rebels = {  type = elven_forebears_rebels size = 1 leader = rebel_preacher } } }
			ibe_result_10 = { owner = { add_splendor = -10 } random = { chance = 15 spawn_rebels = {  type = elven_forebears_rebels size = 1 leader = rebel_preacher } } }
		}
		ibevar_reduce_ibReform = yes
		owner = { remove_country_modifier = ibevar_reformation_work }
		if = {
			limit = { NOT = { check_variable = { ibReform = 0 } } }
			remove_province_modifier = ibevar_old_tradition
			add_permanent_province_modifier = {
				name = ibevar_reformation_effort
				duration = 3650
			}
		}
		if = {
			limit = { owner = { ai = yes } }
			owner = { add_manpower = 1 }
			if = {
				limit = { owner = { num_of_loans = 1  } }
				owner = { add_treasury = 45 }
			}
		}
	}
}

# country_event = {
	# id = ibevar.6
	# title = ibevar.6.t
	# desc = ibevar.6.d
	# picture = ROYAL_COUPLE_FUTURE_eventPicture
	
	# is_triggered_only = yes
	
	# trigger = {
		# any_owned_province = {
			# has_province_modifier = ibevar_old_tradition
			# NOT = { check_variable = { ibReform = 0 } }
		# }
	# }
	
	# option = {
		# name = ibevar.6.a
		# ai_chance = { factor = 50 }
		# every_owned_province = {
			# limit = {
				# has_province_modifier = ibevar_old_tradition
				# NOT = { check_variable = { ibReform = 0 } }
			# }
			# remove_province_modifier = ibevar_old_tradition
			# add_permanent_province_modifier = {
				# name = ibevar_reformation_effort
				# duration = 3650
			# }
		# }
	# }
# }


#Successful Reformation
country_event = {
	id = ibevar.7
	title = ibevar.7.t
	desc = ibevar.7.d
	picture = ROYAL_COUPLE_FUTURE_eventPicture
	
	is_triggered_only = yes
	
	trigger = {
		always = yes
	}
	
	option = {
		name = ibevar.7.a
		ai_chance = { factor = 50 }
		hidden_effect = { set_country_flag = ibevar_reformation_end }
		add_stability_or_adm_power = yes
		add_prestige = 20
		add_legitimacy = 20
	}
}


##Building Casna Aesa
country_event = {
	id = ibevar.8
	title = ibevar.8.t
	desc = ibevar.8.d
	picture = ROYAL_COUPLE_FUTURE_eventPicture
	
	is_triggered_only = yes
	
	trigger = {
		always = yes
	}
	
	option = { #Administrative Option
		name = ibevar.8.a
		ai_chance = { factor = 50 }
		trigger = { NOT = { check_variable = { casnaAesa = 3 } has_country_flag = casna_administrative } }
		country_event = { id = ibevar.101 }
		hidden_effect = { set_country_flag = casna_administrative }
		hidden_effect = { change_variable = { casnaAesa = 1 } }
	}
	
	option = { #Mage Option
		name = ibevar.8.b
		ai_chance = { factor = 50 }
		trigger = { NOT = { check_variable = { casnaAesa = 3 } has_country_flag = casna_mage } }
		country_event = { id = ibevar.101 }
		hidden_effect = { set_country_flag = casna_mage }
		hidden_effect = { change_variable = { casnaAesa = 1 } }
	}
	
	option = { #Army Option
		name = ibevar.8.c
		ai_chance = { factor = 50 }
		trigger = { NOT = { check_variable = { casnaAesa = 3 } has_country_flag = casna_army } }
		country_event = { id = ibevar.101 }
		hidden_effect = { set_country_flag = casna_army }
		hidden_effect = { change_variable = { casnaAesa = 1 } }
	}
	
	option = { #Royal Option
		name = ibevar.8.e
		ai_chance = { factor = 50 }
		trigger = { NOT = { check_variable = { casnaAesa = 3 } has_country_flag = casna_royal } }
		country_event = { id = ibevar.101 }
		hidden_effect = { set_country_flag = casna_royal }
		hidden_effect = { change_variable = { casnaAesa = 1 } }
	}
	
	option = { #Trade Option
		name = ibevar.8.f
		ai_chance = { factor = 50 }
		trigger = { NOT = { check_variable = { casnaAesa = 3 } has_country_flag = casna_trade } }
		country_event = { id = ibevar.101 }
		hidden_effect = { set_country_flag = casna_trade }
		hidden_effect = { change_variable = { casnaAesa = 1 } }
	}
	
	option = { #Start construction
		name = ibevar.8.g
		ai_chance = { factor = 50 }
		trigger = { check_variable = { casnaAesa = 3 } }
		add_treasury = -1500
		country_event = { id = ibevar.9 days = 1825 random = 3650 }
	}
}

#Casna Aesa
country_event = {
	id = ibevar.9
	title = ibevar.9.t
	desc = ibevar.9.d
	picture = ROYAL_COUPLE_FUTURE_eventPicture
	
	is_triggered_only = yes
	
	trigger = {
		always = yes
	}
	
	option = {
		name = ibevar.9.a
		ai_chance = { factor = 50 }
		if = {
			limit = { has_country_flag = casna_army has_country_flag = casna_mage has_country_flag = casna_administrative }
			capital_scope = { add_permanent_province_modifier = { name = ibevar_casna_aesa_1 duration = -1 } }
		}
		else_if = {
			limit = { has_country_flag = casna_army has_country_flag = casna_mage has_country_flag = casna_royal }
			capital_scope = { add_permanent_province_modifier = { name = ibevar_casna_aesa_2 duration = -1 } }
		}
		else_if = {
			limit = { has_country_flag = casna_army has_country_flag = casna_mage has_country_flag = casna_trade }
			capital_scope = { add_permanent_province_modifier = { name = ibevar_casna_aesa_3 duration = -1 } }
		}
		else_if = {
			limit = { has_country_flag = casna_army has_country_flag = casna_royal has_country_flag = casna_trade }
			capital_scope = { add_permanent_province_modifier = { name = ibevar_casna_aesa_4 duration = -1 } }
		}
		else_if = {
			limit = { has_country_flag = casna_army has_country_flag = casna_administrative has_country_flag = casna_trade }
			capital_scope = { add_permanent_province_modifier = { name = ibevar_casna_aesa_5 duration = -1 } }
		}
		else_if = {
			limit = { has_country_flag = casna_army has_country_flag = casna_administrative has_country_flag = casna_royal }
			capital_scope = { add_permanent_province_modifier = { name = ibevar_casna_aesa_6 duration = -1 } }
		}
		else_if = {
			limit = { has_country_flag = casna_mage has_country_flag = casna_administrative has_country_flag = casna_royal }
			capital_scope = { add_permanent_province_modifier = { name = ibevar_casna_aesa_7 duration = -1 } }
		}
		else_if = {
			limit = { has_country_flag = casna_mage has_country_flag = casna_administrative has_country_flag = casna_trade }
			capital_scope = { add_permanent_province_modifier = { name = ibevar_casna_aesa_8 duration = -1 } }
		}
		else_if = {
			limit = { has_country_flag = casna_mage has_country_flag = casna_royal has_country_flag = casna_trade }
			capital_scope = { add_permanent_province_modifier = { name = ibevar_casna_aesa_9 duration = -1 } }
		}
		else_if = {
			limit = { has_country_flag = casna_administrative has_country_flag = casna_royal has_country_flag = casna_trade }
			capital_scope = { add_permanent_province_modifier = { name = ibevar_casna_aesa_10 duration = -1 } }
		}
	}
}

country_event = {
	id = ibevar.10
	title = ibevar.10.t
	desc = ibevar.10.d
	picture = ROYAL_COUPLE_FUTURE_eventPicture
	
	is_triggered_only = yes
	
	trigger = {
		always = yes
	}
	
	option = {
		name = ibevar.10.a
		ai_chance = { factor = 50 }
		add_country_modifier = {
			name = ibevar_elfrealm_of_greater_ibevar
			duration = -1
		}
	}
}

#####################
######## DEBUG AND AI
#####################
province_event = {
	id = ibevar.100
	title = ibevar.100.t
	desc = ibevar.100.d
	picture = ROYAL_COUPLE_FUTURE_eventPicture
	
	is_triggered_only = yes
	hidden = yes
	
	trigger = {
		always = yes
	}
	
	option = {
		name = ibevar.100.a
		ai_chance = { factor = 50 }
		province_event = { id = ibevar.4 }
	}
}

country_event = {
	id = ibevar.101
	title = ibevar.101.t
	desc = ibevar.101.d
	picture = ROYAL_COUPLE_FUTURE_eventPicture
	
	is_triggered_only = yes
	hidden = yes
	
	trigger = {
		always = yes
	}
	
	option = {
		name = ibevar.101.a
		ai_chance = { factor = 50 }
		country_event = { id = ibevar.8 }
	}
}

country_event = {
	id = ibevar.102
	title = ibevar.102.t
	desc = ibevar.102.d
	picture = ROYAL_COUPLE_FUTURE_eventPicture
	
	fire_only_once = yes
	
	is_triggered_only = yes
	
	trigger = {
		ai = yes
		is_year = 1465
	}
	
	option = {
		name = ibevar.102.a
		ai_chance = { factor = 50 }
		every_owned_province = {
			limit = {
				OR = {
					area = south_ibevar_area
					area = north_ibevar_area
				}
			}
			change_religion = regent_court
		}
	}
}

province_event = {
	id = ibevar.103
	title = ibevar.5.t
	desc = ibevar.103.d
	picture = ROYAL_COUPLE_FUTURE_eventPicture
	
	is_triggered_only = yes
	hidden = yes
	
	trigger = {
		always = yes
	}
	
	option = {
		name = ibevar.103.a
		ai_chance = { factor = 50 }
		add_province_triggered_modifier = random_ibevar_disaster_result
	}
}

country_event = {
	id = ibevar.104
	title = ibevar.104.t
	desc = ibevar.104.d
	picture = ROYAL_COUPLE_FUTURE_eventPicture
	
	is_triggered_only = yes
	hidden = yes
	
	trigger = {
		always = yes
	}
	
	option = {
		name = ibevar.104.a
		ai_chance = { factor = 50 }
		add_treasury = -15
	}
	
	option = {
		name = ibevar.104.a
		ai_chance = { factor = 35 }
		add_treasury = -30
	}
	
	option = {
		name = ibevar.104.a
		ai_chance = { factor = 15 }
		add_treasury = -50
	}
}

country_event = {
	id = ibevar.105
	title = ibevar.104.t
	desc = ibevar.104.d
	picture = ROYAL_COUPLE_FUTURE_eventPicture
	
	is_triggered_only = yes
	hidden = yes
	
	trigger = {
		always = yes
	}
	
	option = {
		name = ibevar.104.a
		ai_chance = { factor = 33 }
		add_adm_power = -15
	}
	
	option = {
		name = ibevar.104.a
		ai_chance = { factor = 33 }
		add_dip_power = -15
	}
	
	option = {
		name = ibevar.104.a
		ai_chance = { factor = 33 }
		add_mil_power = -15
	}
}

country_event = {
	id = ibevar.106
	title = ibevar.104.t
	desc = ibevar.104.d
	picture = ROYAL_COUPLE_FUTURE_eventPicture
	
	is_triggered_only = yes
	hidden = yes
	
	trigger = {
		always = yes
	}
	
	option = {
		name = ibevar.104.a
		ai_chance = { factor = 50 }
		add_manpower = -0.5
	}
	
	option = {
		name = ibevar.104.a
		ai_chance = { factor = 35 }
		add_manpower = -1
	}
	
	option = {
		name = ibevar.104.a
		ai_chance = { factor = 15 }
		add_manpower = -1.5
	}
}